<?xml version="1.0" encoding="utf-8"?>
<!-- Generator: Adobe Illustrator 18.1.1, SVG Export Plug-In . SVG Version: 6.00 Build 0)  -->
<svg version="1.1" id="Mode_Isolation" xmlns="http://www.w3.org/2000/svg" xmlns:xlink="http://www.w3.org/1999/xlink" x="0px"
	 y="0px" viewBox="-283 392.18 278 124.5" style="enable-background:new -283 392.18 278 124.5;" xml:space="preserve">
<filter  width="120%" height="120%" id="dropshadow" x="0" y="0">
	<feOffset  result="offOut" in="SourceGraphic" dx="0" dy="3"></feOffset>
	<feColorMatrix  type="matrix" result="matrixOut" in="offOut" values="0.4 0 0 0 0 0 0.15 0 0 0 0 0 0.1 0 0 0 1 0 0 0">
		</feColorMatrix>
	<feGaussianBlur  result="blurOut" in="matrixOut" stdDeviation="2"></feGaussianBlur>
	<feBlend  in="SourceGraphic" in2="blurOut" mode="normal"></feBlend>
</filter>
<path style="fill:#FFFFFF;filter:url(#dropshadow);" d="M-29,447.77c0,1.91-1.91,3.49-4.13,3.49c-2.22,0-4.13-1.59-4.13-3.49
	c0-1.91,1.91-3.49,4.13-3.49C-30.91,444.28-29,445.87-29,447.77 M-38.53,458.89c0,1.59-1.59,2.86-3.49,2.86
	c-1.91,0-3.49-1.27-3.49-2.86c0-1.59,1.59-2.86,3.49-2.86C-40.12,456.03-38.53,457.3-38.53,458.89 M-55.05,467.79
	c0,1.27-1.27,2.54-2.86,2.54s-2.86-0.95-2.86-2.54c0-1.27,1.27-2.54,2.86-2.54S-55.05,466.52-55.05,467.79 M-74.75,473.51
	c0,1.27-0.95,2.22-2.54,2.22c-1.27,0-2.54-0.95-2.54-2.22c0-1.27,1.27-2.22,2.54-2.22C-76.02,471.6-74.75,472.55-74.75,473.51
	 M-97.94,476.68c0,0.95-0.95,1.91-2.22,1.91s-2.22-0.95-2.22-1.91c0-0.95,0.95-1.91,2.22-1.91
	C-98.89,475.09-97.94,475.73-97.94,476.68 M-125.26,477c0,0.64-0.64,1.27-1.59,1.27s-1.59-0.64-1.59-1.27
	c0-0.64,0.64-1.27,1.59-1.27S-125.26,476.36-125.26,477 M-150.36,408.38c-14.93-0.32-28.91,1.59-39.71,4.77
	c9.21-1.91,19.7-2.86,30.82-2.54c35.26,0.95,63.54,13.03,62.9,27.32c-0.32,8.26-9.85,15.25-24.78,19.7
	c20.01-3.81,33.68-12.07,33.99-21.6C-86.82,421.4-115.09,409.33-150.36,408.38z M-129.71,406.79c-5.72,0-11.12,0-16.2,0.32
	c2.54,0,4.77,0,7.31,0c41.3,0.95,74.66,15.25,74.02,32.09c-0.32,14.61-26.05,26.05-59.73,28.27c38.12-0.64,68.3-12.71,68.94-28.59
	C-54.73,422.04-88.09,407.74-129.71,406.79z M-60.13,496.06l2.86-11.12h-2.54l-2.86,11.12c-0.32,1.59,0.32,3.18,1.91,3.18h7.62
	l0.64-2.22h-6.99C-59.82,497.01-60.13,496.38-60.13,496.06z M-256.15,484.94h-1.91l-2.86,10.48c-0.32,0.95,0,1.91,0.64,2.54
	c0.64,0.95,1.91,1.27,3.18,1.27h5.08l0.64-2.54h-5.4c-0.64,0-0.95-0.32-1.27-0.32c-0.32-0.32-0.32-0.64,0-0.95l2.86-10.48H-256.15z
	 M-46.16,484.94h-1.91l-2.54,10.17c-0.32,0.95,0,1.91,0.64,2.54c0.64,0.95,1.91,1.27,3.18,1.27h5.08l0.64-2.54h-5.4
	c-0.64,0-0.95-0.32-1.27-0.32c-0.32-0.32-0.32-0.64,0-0.95l2.86-10.48h-1.27V484.94z M-220.57,484.94l-0.64,2.54h-8.58
	c-0.95,0-2.22,0.64-2.22,1.59l-0.32,0.64c0,0.32,0,0.64,0,0.95c0.32,0.32,0.64,0.32,1.27,0.32h5.72c1.27,0,2.54,0.64,3.18,1.27
	c0.64,0.64,0.64,1.59,0.64,2.54l-0.32,0.95c-0.64,1.91-2.86,3.81-5.4,3.81h-8.9l0.64-2.54h8.9c0.95,0,2.22-0.64,2.22-1.59l0.32-0.64
	c0-0.32,0-0.64,0-0.95c-0.32-0.32-0.64-0.32-1.27-0.32h-6.04c-1.27,0-2.54-0.64-3.18-1.27c-0.64-0.64-0.64-1.59-0.64-2.54l0.32-0.64
	c0.64-1.91,2.86-3.81,5.4-3.81h8.9V484.94z M-205.95,484.94l-0.64,2.54h-8.58c-0.95,0-2.22,0.64-2.22,1.59l-0.32,0.64
	c0,0.32,0,0.64,0,0.95c0.32,0.32,0.64,0.32,1.27,0.32h5.72c1.27,0,2.54,0.64,3.18,1.27c0.64,0.64,0.64,1.59,0.64,2.54v0.95
	c-0.64,1.91-2.86,3.81-5.4,3.81h-9.21l0.64-2.54h8.9c0.95,0,2.22-0.64,2.22-1.59l0.32-0.64c0-0.32,0-0.64,0-0.95
	c-0.32-0.32-0.64-0.32-1.27-0.32h-5.72c-1.27,0-2.54-0.64-3.18-1.27c-0.64-0.64-0.64-1.59-0.64-2.54l0.32-0.64
	c0.64-1.91,2.86-3.81,5.4-3.81h8.58V484.94z M-239.63,436.65h-6.04l-7.94,30.18c-0.64,2.86-0.32,5.72,1.59,7.62
	c1.91,2.54,5.4,4.13,9.21,4.13h14.93l1.91-6.99h-15.88c-1.59,0-2.86-0.64-3.49-1.27c-0.64-0.64-0.64-1.59-0.32-2.22l7.94-31.13
	h-1.91V436.65z M-177.68,436.34l-1.91,6.99h-24.78c-3.18,0-6.04,2.22-6.67,4.45l-0.64,1.91c-0.32,0.95,0,1.59,0.32,2.22
	c0.64,0.95,1.91,1.27,3.49,1.27h16.84c3.81,0,7.31,1.59,9.21,4.13c1.59,2.22,2.22,4.77,1.59,7.62l-0.64,1.91
	c-1.59,6.04-8.58,10.8-15.57,10.8h-27l1.91-7.31h26.05c3.18,0,6.04-2.22,6.67-4.45l0.64-1.91c0.32-0.95,0-1.59-0.32-2.22
	c-0.64-0.95-1.91-1.27-3.49-1.27h-16.84c-3.81,0-7.31-1.59-9.21-4.13c-1.59-2.22-2.22-4.77-1.59-7.62l0.64-1.91
	c1.59-6.04,8.58-10.8,15.57-10.8h25.73V436.34z M-133.2,436.34l-1.91,6.99h-24.78c-3.18,0-6.04,2.22-6.67,4.45l-0.64,1.91
	c-0.32,0.95,0,1.59,0.32,2.22c0.64,0.95,1.91,1.27,3.49,1.27h16.84c3.81,0,7.31,1.59,9.21,4.13c1.59,2.22,2.22,4.77,1.59,7.62
	l-0.64,1.91c-1.59,6.04-8.58,10.8-15.57,10.8h-27l1.91-7.31h26.05c3.18,0,6.04-2.22,6.67-4.45l0.64-1.91c0.32-0.95,0-1.59-0.32-2.22
	c-0.64-0.95-1.91-1.27-3.49-1.27h-16.84c-3.81,0-7.31-1.59-9.21-4.13c-1.59-2.22-2.22-4.77-1.59-7.62l0.64-1.91
	c1.59-6.04,8.58-10.8,15.57-10.8h25.73V436.34z M-96.35,484.94l-0.64,2.54h-8.58c-0.95,0-2.22,0.64-2.22,1.59l-0.32,0.64
	c0,0.32,0,0.64,0,0.95c0.32,0.32,0.64,0.32,1.27,0.32h5.72c1.27,0,2.54,0.64,3.18,1.27c0.64,0.64,0.64,1.59,0.64,2.54l-0.32,0.95
	c-0.64,1.91-2.86,3.81-5.4,3.81h-9.21l0.64-2.54h8.9c0.95,0,2.22-0.64,2.22-1.59l0.32-0.64c0-0.32,0-0.64,0-0.95
	c-0.32-0.32-0.64-0.32-1.27-0.32h-5.72c-1.27,0-2.54-0.64-3.18-1.27c-0.64-0.64-0.64-1.59-0.64-2.54l0.32-0.64
	c0.64-1.91,2.86-3.81,5.4-3.81h8.9V484.94z M-243.76,487.48h7.94l0.64-2.54h-8.26c-2.54,0-4.77,1.59-5.4,3.81l-1.59,6.67
	c-0.32,0.95,0,1.91,0.64,2.54c0.64,0.95,1.91,1.27,3.18,1.27h7.94l0.64-2.54h-8.58c-0.64,0-0.95-0.32-1.27-0.32
	c-0.32-0.32-0.32-0.64,0-0.95c0,0,0.32-0.95,0.64-2.22h9.85l0.64-2.54h-9.85c0.32-0.95,0.64-1.91,0.64-1.91
	C-245.98,488.12-245.03,487.48-243.76,487.48z M-125.9,487.48h7.94l0.64-2.54h-8.26c-2.54,0-4.77,1.59-5.4,3.81l-1.59,6.67
	c-0.32,0.95,0,1.91,0.64,2.54c0.64,0.95,1.91,1.27,3.18,1.27h7.62l0.64-2.54h-8.26c-0.64,0-0.95-0.32-1.27-0.32
	c-0.32-0.32-0.32-0.64,0-0.95c0,0,0.32-0.95,0.64-2.22h9.85l0.64-2.54h-9.85c0.32-0.95,0.64-1.91,0.64-1.91
	C-128.12,488.12-127.17,487.48-125.9,487.48z M-70.3,487.48h7.94l0.64-2.54h-8.26c-2.54,0-4.77,1.59-5.4,3.81l-1.59,6.67
	c-0.32,0.95,0,1.91,0.64,2.54c0.64,0.95,1.91,1.27,3.18,1.27h7.94l0.64-2.54h-8.26c-0.64,0-0.95-0.32-1.27-0.32
	c-0.32-0.32-0.32-0.64,0-0.95c0,0,0.32-0.95,0.64-2.22h9.53l0.64-2.54h-9.85c0.32-0.95,0.64-1.91,0.64-1.91
	C-72.52,488.12-71.25,487.48-70.3,487.48z M-147.5,486.53c-0.64-0.95-1.91-1.27-3.18-1.27h-4.13h-0.64c-2.54,0-4.77,1.59-5.4,3.81
	l-1.59,6.67c-0.32,0.95,0,1.91,0.64,2.54c0.64,0.95,1.91,1.27,3.18,1.27h4.45h0.32c2.54,0,4.77-1.59,5.4-3.81l1.59-6.67
	C-146.55,488.12-146.86,487.17-147.5,486.53z M-149.4,488.75l-1.59,6.67c-0.32,0.95-1.27,1.59-2.22,1.59h-4.45l0,0h-0.32
	c-0.64,0-0.95-0.32-1.27-0.32c-0.32-0.32-0.32-0.64,0-0.95l1.59-6.67c0.32-0.95,1.27-1.59,2.22-1.59h4.45l0,0h0.32
	c0.64,0,0.95,0.32,1.27,0.32C-149.4,488.12-149.4,488.44-149.4,488.75z M-164.34,484.94L-164.34,484.94l-8.58,10.8l-3.18-10.8l0,0
	l0,0h-2.86l-3.81,14.3h2.86c0.32-0.95,1.59-6.04,2.54-9.85l2.86,9.85h1.27l7.62-9.21l-2.22,9.21h2.86c0.32-1.59,3.81-14.3,3.81-14.3
	H-164.34z M-78.88,484.94L-78.88,484.94l-8.9,10.8l-3.18-10.8l0,0l0,0h-2.86l-3.81,14.3h2.86c0.32-0.95,1.59-6.04,2.54-9.85
	l2.86,9.85h1.27l7.62-9.21l-2.22,9.21h2.86c0.32-1.59,3.81-14.3,3.81-14.3H-78.88z M-181.49,484.94l-0.64,2.54h-8.58
	c-0.95,0-2.22,0.64-2.22,1.59l-0.32,0.64c0,0.32,0,0.64,0,0.95c0.32,0.32,0.64,0.32,1.27,0.32h5.72c1.27,0,2.54,0.64,3.18,1.27
	c0.64,0.64,0.64,1.59,0.64,2.54l-0.32,0.95c-0.64,1.91-2.86,3.81-5.4,3.81h-9.21l0.64-2.54h8.9c0.95,0,2.22-0.64,2.22-1.59
	l0.32-0.64c0-0.32,0-0.64,0-0.95c-0.32-0.32-0.64-0.32-1.27-0.32h-5.72c-1.27,0-2.54-0.64-3.18-1.27c-0.64-0.64-0.64-1.59-0.64-2.54
	l0.32-0.64c0.64-1.91,2.86-3.81,5.4-3.81h8.9V484.94z M-129.71,484.94h-4.13l-9.21,5.72c0.95-3.18,1.59-5.72,1.59-5.72h-2.86
	l-3.81,14.3h2.86c0.32-0.64,0.64-2.86,1.59-5.72l2.86-1.59l4.45,7.31h2.86l-5.08-8.26L-129.71,484.94z M-29.95,434.11
	c0,1.59-1.59,2.86-3.49,2.86c-1.91,0-3.49-1.27-3.49-2.86c0-1.59,1.59-2.86,3.49-2.86C-31.54,431.25-29.95,432.52-29.95,434.11
	 M-38.53,423.95c0,1.27-1.27,2.54-2.86,2.54c-1.59,0-2.86-0.95-2.86-2.54c0-1.27,1.27-2.54,2.86-2.54
	C-39.8,421.72-38.53,422.67-38.53,423.95 M-52.51,416c0,1.27-0.95,2.22-2.54,2.22c-1.27,0-2.54-0.95-2.54-2.22
	c0-1.27,1.27-2.22,2.54-2.22C-53.46,414.1-52.51,415.05-52.51,416 M-72.52,410.6c0,0.95-0.95,1.59-1.91,1.59
	c-0.95,0-1.91-0.64-1.91-1.59c0-0.95,0.95-1.59,1.91-1.59C-73.16,409.01-72.52,409.97-72.52,410.6"/>
</svg>
