<?xml version="1.0" encoding="UTF-8"?>
<!-- Generator: Adobe Illustrator 18.1.1, SVG Export Plug-In . SVG Version: 6.00 Build 0)  -->
<svg version="1.1" id="Layer_1" xmlns="http://www.w3.org/2000/svg" xmlns:xlink="http://www.w3.org/1999/xlink" x="0px" y="0px" width="655px" height="185px" viewBox="-10 -10 670 200" enable-background="new 0 0 655.75 184.57" xml:space="preserve">
<script type="text/ecmascript" xlink:href="rules_prize_IE_files/smil.htm"/>
<filter width="160%" height="160%" filterUnits="objectBoundingBox" id="outer_glow_white" x="-30%" y="-30%">
	<feGaussianBlur stdDeviation="4" result="glow"/>
	<feMerge>
		<feMergeNode in="glow"/>
		<feMergeNode in="SourceGraphic"/>
	</feMerge>
</filter>
<g filter="url(#outer_glow_white)">
	<path fill="#FEFEFF" d="M0,41.71c0-4.44,6.8-4.42,6.8,0C6.8,46.1,0,46.12,0,41.71z M8.16,33.55c0-4.44,6.8-4.42,6.8,0   C14.97,37.94,8.16,37.95,8.16,33.55z M16.33,25.39c0-4.4,6.77-4.39,6.77,0C23.09,29.78,16.33,29.78,16.33,25.39z M16.33,33.55   c0-4.43,6.77-4.43,6.77,0C23.09,37.94,16.33,37.95,16.33,33.55z M16.33,41.71c0-4.43,6.77-4.43,6.77,0   C23.09,46.11,16.33,46.11,16.33,41.71z M16.33,49.84c0-4.4,6.77-4.39,6.77,0C23.09,54.27,16.33,54.27,16.33,49.84z M16.33,58   c0-4.4,6.77-4.39,6.77,0C23.09,62.4,16.33,62.4,16.33,58z M16.33,66.17c0-4.43,6.77-4.43,6.77,0   C23.09,70.56,16.33,70.56,16.33,66.17z M16.33,74.33c0-4.43,6.77-4.43,6.77,0C23.09,78.72,16.33,78.73,16.33,74.33z"/>
	<path fill="#FEFEFF" d="M32.72,33.55c0-4.44,6.8-4.42,6.8,0C39.52,37.94,32.72,37.95,32.72,33.55z M32.72,41.71   c0-4.44,6.8-4.42,6.8,0C39.52,46.1,32.72,46.12,32.72,41.71z M32.72,49.84c0-4.41,6.8-4.39,6.8,0   C39.52,54.26,32.72,54.28,32.72,49.84z M32.72,58c0-4.41,6.8-4.39,6.8,0C39.52,62.39,32.72,62.41,32.72,58z M32.72,66.17   c0-4.44,6.8-4.42,6.8,0C39.52,70.55,32.72,70.57,32.72,66.17z M40.88,25.39c0-4.41,6.8-4.39,6.8,0   C47.68,29.77,40.88,29.79,40.88,25.39z M40.88,58c0-4.41,6.8-4.39,6.8,0C47.68,62.39,40.88,62.41,40.88,58z M40.88,74.33   c0-4.44,6.8-4.42,6.8,0C47.68,78.72,40.88,78.74,40.88,74.33z M49.04,25.39c0-4.4,6.77-4.39,6.77,0   C55.81,29.78,49.04,29.78,49.04,25.39z M49.04,49.84c0-4.4,6.77-4.39,6.77,0C55.81,54.27,49.04,54.27,49.04,49.84z M49.04,74.33   c0-4.43,6.77-4.43,6.77,0C55.81,78.72,49.04,78.73,49.04,74.33z M57.17,25.39c0-4.39,6.8-4.4,6.8,0   C63.98,29.79,57.17,29.78,57.17,25.39z M57.17,41.71c0-4.42,6.8-4.44,6.8,0C63.98,46.12,57.17,46.1,57.17,41.71z M57.17,74.33   c0-4.42,6.8-4.44,6.8,0C63.98,78.73,57.17,78.72,57.17,74.33z M65.34,33.55c0-4.44,6.8-4.42,6.8,0   C72.14,37.94,65.34,37.96,65.34,33.55z M65.34,41.71c0-4.44,6.8-4.42,6.8,0C72.14,46.1,65.34,46.12,65.34,41.71z M65.34,49.84   c0-4.41,6.8-4.39,6.8,0C72.14,54.26,65.34,54.28,65.34,49.84z M65.34,58c0-4.41,6.8-4.39,6.8,0C72.14,62.39,65.34,62.41,65.34,58z    M65.34,66.17c0-4.44,6.8-4.42,6.8,0C72.14,70.55,65.34,70.57,65.34,66.17z"/>
	<path fill="#FEFEFF" d="M81.76,33.55c0-4.44,6.8-4.42,6.8,0C88.56,37.94,81.76,37.95,81.76,33.55z M81.76,41.71   c0-4.44,6.8-4.42,6.8,0C88.56,46.1,81.76,46.12,81.76,41.71z M81.76,49.84c0-4.41,6.8-4.39,6.8,0   C88.56,54.26,81.76,54.28,81.76,49.84z M81.76,58c0-4.41,6.8-4.39,6.8,0C88.56,62.39,81.76,62.41,81.76,58z M81.76,66.17   c0-4.44,6.8-4.42,6.8,0C88.56,70.55,81.76,70.57,81.76,66.17z M89.92,25.39c0-4.41,6.8-4.39,6.8,0   C96.73,29.77,89.92,29.79,89.92,25.39z M89.92,58c0-4.41,6.8-4.39,6.8,0C96.73,62.39,89.92,62.41,89.92,58z M89.92,74.33   c0-4.44,6.8-4.42,6.8,0C96.73,78.72,89.92,78.74,89.92,74.33z M98.09,25.39c0-4.4,6.77-4.39,6.77,0   C104.86,29.78,98.09,29.78,98.09,25.39z M98.09,49.84c0-4.4,6.77-4.39,6.77,0C104.86,54.27,98.09,54.27,98.09,49.84z M98.09,74.33   c0-4.43,6.77-4.43,6.77,0C104.86,78.72,98.09,78.73,98.09,74.33z M106.22,25.39c0-4.39,6.8-4.4,6.8,0   C113.02,29.79,106.22,29.78,106.22,25.39z M106.22,41.71c0-4.42,6.8-4.44,6.8,0C113.02,46.12,106.22,46.1,106.22,41.71z    M106.22,74.33c0-4.42,6.8-4.44,6.8,0C113.02,78.73,106.22,78.72,106.22,74.33z M114.38,33.55c0-4.44,6.8-4.42,6.8,0   C121.18,37.94,114.38,37.96,114.38,33.55z M114.38,41.71c0-4.44,6.8-4.42,6.8,0C121.18,46.1,114.38,46.12,114.38,41.71z    M114.38,49.84c0-4.41,6.8-4.39,6.8,0C121.18,54.26,114.38,54.28,114.38,49.84z M114.38,58c0-4.41,6.8-4.39,6.8,0   C121.18,62.39,114.38,62.41,114.38,58z M114.38,66.17c0-4.44,6.8-4.42,6.8,0C121.18,70.55,114.38,70.57,114.38,66.17z"/>
	<path fill="#FEFEFF" d="M130.81,33.55c0-4.44,6.8-4.42,6.8,0C137.61,37.94,130.81,37.95,130.81,33.55z M130.81,41.71   c0-4.44,6.8-4.42,6.8,0C137.61,46.1,130.81,46.12,130.81,41.71z M130.81,49.84c0-4.41,6.8-4.39,6.8,0   C137.61,54.26,130.81,54.28,130.81,49.84z M130.81,58c0-4.41,6.8-4.39,6.8,0C137.61,62.39,130.81,62.41,130.81,58z M130.81,66.17   c0-4.44,6.8-4.42,6.8,0C137.61,70.55,130.81,70.57,130.81,66.17z M138.97,25.39c0-4.41,6.8-4.39,6.8,0   C145.77,29.77,138.97,29.79,138.97,25.39z M138.97,58c0-4.41,6.8-4.39,6.8,0C145.77,62.39,138.97,62.41,138.97,58z M138.97,74.33   c0-4.44,6.8-4.42,6.8,0C145.77,78.72,138.97,78.74,138.97,74.33z M147.13,25.39c0-4.4,6.77-4.39,6.77,0   C153.9,29.78,147.13,29.78,147.13,25.39z M147.13,49.84c0-4.4,6.77-4.39,6.77,0C153.9,54.27,147.13,54.27,147.13,49.84z    M147.13,74.33c0-4.43,6.77-4.43,6.77,0C153.9,78.72,147.13,78.73,147.13,74.33z M155.26,25.39c0-4.39,6.8-4.4,6.8,0   C162.06,29.79,155.26,29.78,155.26,25.39z M155.26,41.71c0-4.42,6.8-4.44,6.8,0C162.06,46.12,155.26,46.1,155.26,41.71z    M155.26,74.33c0-4.42,6.8-4.44,6.8,0C162.06,78.73,155.26,78.72,155.26,74.33z M163.42,33.55c0-4.44,6.8-4.42,6.8,0   C170.23,37.94,163.42,37.96,163.42,33.55z M163.42,41.71c0-4.44,6.8-4.42,6.8,0C170.23,46.1,163.42,46.12,163.42,41.71z    M163.42,49.84c0-4.41,6.8-4.39,6.8,0C170.23,54.26,163.42,54.28,163.42,49.84z M163.42,58c0-4.41,6.8-4.39,6.8,0   C170.23,62.39,163.42,62.41,163.42,58z M163.42,66.17c0-4.44,6.8-4.42,6.8,0C170.23,70.55,163.42,70.57,163.42,66.17z"/>
</g>
<g filter="url(#outer_glow_white)">
	<g>
		<path fill="none" stroke="#FFFFFF" stroke-width="2" stroke-linecap="round" stroke-linejoin="round" stroke-miterlimit="10" d="    M578.1,77.7c-14.73,21.87-29.42,43.77-44.04,65.72"/>
		<path fill="none" stroke="#FFFFFF" stroke-width="2" stroke-linecap="round" stroke-linejoin="round" stroke-miterlimit="10" d="    M576.38,99.34c-11.13,16.68-22.24,33.37-33.31,50.09"/>
		<path fill="none" stroke="#FFFFFF" stroke-width="2" stroke-linecap="round" stroke-linejoin="round" stroke-miterlimit="10" d="    M567.85,43.35c0.75,0.26,2.19-0.23,2.95-0.83c2.06-1.62,3.95-4.11,4.47-7c0.4-2.24-1.94-3.26-4.4-2.11    c-1.68,0.78-2.85,2.08-4.13,3.29c-1.23,1.17-2.41,2.42-3.74,3.46c-1.42,1.11-2.88,1.47-4.07,0.99c-1.42-0.58-1.66-1.83-0.89-3.55    c0.92-2.04,2-3.53,4-5.16c0.74-0.6,1.8-1.17,2.39-0.92"/>
		<path fill="none" stroke="#FFFFFF" stroke-width="2" stroke-linecap="round" stroke-linejoin="round" stroke-miterlimit="10" d="    M548.72,51.18c3.1,3.97,4.75,6.05,8.19,10.42c0.25,0.29,0.27,0.58-0.04,1.04c-0.32,0.47-0.68,0.67-1.17,0.71    c-6.78,0.44-10.04,0.65-16.32,1.04"/>
		<path fill="none" stroke="#FFFFFF" stroke-width="2" stroke-linecap="round" stroke-linejoin="round" stroke-miterlimit="10" d="    M597.08,68.38c-4.31,6.44-8.68,12.98-13.11,19.6"/>
		<path fill="none" stroke="#FFFFFF" stroke-width="2" stroke-linecap="round" stroke-linejoin="round" stroke-miterlimit="10" d="    M565.1,50.46c-5.43-1.77-8.02-2.62-12.95-4.24"/>
		<path fill="none" stroke="#FFFFFF" stroke-width="2" stroke-linecap="round" stroke-linejoin="round" stroke-miterlimit="10" d="    M579.86,29.46c0,0-7.82-7.57-8.75-8.56c-0.32-0.35-0.78-0.72-0.32-1.41c0.51-0.76,1.29-0.77,1.97-0.9    c6.42-1.2,9.77-1.82,16.73-3.06"/>
		<path fill="none" stroke="#FFFFFF" stroke-width="2" stroke-linecap="round" stroke-linejoin="round" stroke-miterlimit="10" d="    M583.14,16.67c-2.65,3.78-3.99,5.69-6.67,9.52"/>
		<path fill="none" stroke="#FFFFFF" stroke-width="2" stroke-linecap="round" stroke-linejoin="round" stroke-miterlimit="10" d="    M538.47,182.22c-19.62-14.56-38.95-29.48-58.36-44.33c-2.89-2.21-2.55-7.67,0.62-12.18c28.28-39.98,57.12-79.54,86.28-118.89    c2.75-3.7,7.39-6.3,10.63-5.76c24.02,3.98,47.98,8.22,71.9,12.76c4.95,0.95,6.73,5.4,3.74,9.99    c-33.5,51.38-67.46,102.46-100.96,153.84C548.75,183.15,542.47,185.16,538.47,182.22z"/>
		<path fill="none" stroke="#FFFFFF" stroke-width="2" stroke-linecap="round" stroke-linejoin="round" stroke-miterlimit="10" d="    M516.04,132.89c-1.82-1.25-2.72-1.86-4.5-3.08c-1.18-0.81-1.18-2.85-0.02-4.56c2.31-3.4,3.46-5.08,5.75-8.44    c1.15-1.68,3.04-2.44,4.25-1.69c1.81,1.13,2.73,1.7,4.6,2.85c1.24,0.77,1.32,2.81,0.14,4.54c-2.34,3.46-3.51,5.2-5.86,8.7    C519.22,132.98,517.26,133.73,516.04,132.89z"/>
	</g>
</g>
<g>
	<path fill="#FEFEFF" d="M6.15,98.09c0-1.56,2.4-1.55,2.4,0S6.15,99.65,6.15,98.09z M9.03,98.09c0-1.56,2.4-1.55,2.4,0   S9.03,99.65,9.03,98.09z M11.91,98.09c0-1.55,2.39-1.55,2.39,0C14.3,99.65,11.91,99.65,11.91,98.09z M11.91,100.98   c0-1.57,2.39-1.57,2.39,0C14.3,102.53,11.91,102.53,11.91,100.98z M11.91,103.86c0-1.57,2.39-1.57,2.39,0   C14.3,105.41,11.91,105.41,11.91,103.86z M11.91,106.73c0-1.55,2.39-1.55,2.39,0C14.3,108.3,11.91,108.3,11.91,106.73z    M11.91,109.61c0-1.55,2.39-1.55,2.39,0C14.3,111.17,11.91,111.17,11.91,109.61z M11.91,112.5c0-1.57,2.39-1.57,2.39,0   C14.3,114.05,11.91,114.05,11.91,112.5z M14.78,98.09c0-1.55,2.4-1.56,2.4,0C17.19,99.65,14.78,99.64,14.78,98.09z M17.67,98.09   c0-1.56,2.4-1.55,2.4,0S17.67,99.65,17.67,98.09z"/>
	<path fill="#FEFEFF" d="M24.67,100.98c0-1.57,2.4-1.56,2.4,0C27.07,102.53,24.67,102.53,24.67,100.98z M24.67,103.85   c0-1.56,2.4-1.55,2.4,0C27.07,105.41,24.67,105.42,24.67,103.85z M24.67,106.73c0-1.56,2.4-1.55,2.4,0S24.67,108.29,24.67,106.73z    M24.67,109.61c0-1.57,2.4-1.56,2.4,0C27.07,111.16,24.67,111.17,24.67,109.61z M27.55,98.09c0-1.57,2.4-1.56,2.4,0   C29.95,99.64,27.55,99.65,27.55,98.09z M27.55,103.85c0-1.56,2.4-1.55,2.4,0C29.95,105.41,27.55,105.42,27.55,103.85z M27.55,112.5   c0-1.57,2.4-1.56,2.4,0C29.95,114.05,27.55,114.05,27.55,112.5z M30.43,98.09c0-1.57,2.39-1.57,2.39,0   C32.82,99.65,30.43,99.65,30.43,98.09z M30.43,103.85c0-1.55,2.39-1.55,2.39,0C32.82,105.41,30.43,105.41,30.43,103.85z    M30.43,112.5c0-1.57,2.39-1.57,2.39,0C32.82,114.05,30.43,114.05,30.43,112.5z M33.3,98.09c0-1.56,2.4-1.57,2.4,0   C35.71,99.65,33.3,99.64,33.3,98.09z M33.3,103.85c0-1.55,2.4-1.56,2.4,0C35.71,105.42,33.3,105.41,33.3,103.85z M33.3,112.5   c0-1.56,2.4-1.57,2.4,0C35.71,114.05,33.3,114.05,33.3,112.5z M36.19,100.98c0-1.57,2.4-1.56,2.4,0   C38.59,102.53,36.19,102.53,36.19,100.98z M36.19,103.85c0-1.56,2.4-1.55,2.4,0C38.59,105.41,36.19,105.42,36.19,103.85z    M36.19,109.61c0-1.57,2.4-1.56,2.4,0C38.59,111.16,36.19,111.17,36.19,109.61z"/>
	<path fill="#FEFEFF" d="M43.19,98.09c0-1.56,2.4-1.55,2.4,0S43.19,99.65,43.19,98.09z M43.19,100.98c0-1.57,2.4-1.56,2.4,0   C45.59,102.53,43.19,102.53,43.19,100.98z M43.19,103.86c0-1.57,2.4-1.56,2.4,0C45.59,105.41,43.19,105.42,43.19,103.86z    M43.19,106.73c0-1.56,2.4-1.55,2.4,0C45.59,108.29,43.19,108.3,43.19,106.73z M43.19,109.61c0-1.56,2.4-1.55,2.4,0   S43.19,111.17,43.19,109.61z M43.19,112.5c0-1.57,2.4-1.56,2.4,0C45.59,114.05,43.19,114.05,43.19,112.5z M46.07,103.86   c0-1.57,2.4-1.56,2.4,0C48.47,105.41,46.07,105.42,46.07,103.86z M48.95,103.86c0-1.57,2.39-1.57,2.39,0   C51.34,105.41,48.95,105.41,48.95,103.86z M51.82,103.86c0-1.56,2.4-1.57,2.4,0C54.23,105.42,51.82,105.41,51.82,103.86z    M54.71,98.09c0-1.56,2.4-1.55,2.4,0S54.71,99.65,54.71,98.09z M54.71,100.98c0-1.57,2.4-1.56,2.4,0   C57.11,102.53,54.71,102.53,54.71,100.98z M54.71,103.86c0-1.57,2.4-1.56,2.4,0C57.11,105.41,54.71,105.42,54.71,103.86z    M54.71,106.73c0-1.56,2.4-1.55,2.4,0C57.11,108.29,54.71,108.3,54.71,106.73z M54.71,109.61c0-1.56,2.4-1.55,2.4,0   S54.71,111.17,54.71,109.61z M54.71,112.5c0-1.57,2.4-1.56,2.4,0C57.11,114.05,54.71,114.05,54.71,112.5z"/>
	<path fill="#FEFEFF" d="M61.71,98.09c0-1.57,2.4-1.56,2.4,0C64.11,99.64,61.71,99.65,61.71,98.09z M61.71,100.98   c0-1.57,2.4-1.56,2.4,0C64.11,102.53,61.71,102.53,61.71,100.98z M61.71,103.85c0-1.56,2.4-1.55,2.4,0   C64.11,105.41,61.71,105.42,61.71,103.85z M61.71,106.73c0-1.56,2.4-1.55,2.4,0S61.71,108.29,61.71,106.73z M61.71,109.61   c0-1.57,2.4-1.56,2.4,0C64.11,111.16,61.71,111.17,61.71,109.61z M61.71,112.5c0-1.57,2.4-1.56,2.4,0   C64.11,114.05,61.71,114.05,61.71,112.5z M64.59,98.09c0-1.57,2.4-1.56,2.4,0C66.99,99.64,64.59,99.65,64.59,98.09z M67.47,98.09   c0-1.57,2.39-1.57,2.39,0C69.86,99.65,67.47,99.65,67.47,98.09z M70.34,98.09c0-1.56,2.4-1.57,2.4,0   C72.75,99.65,70.34,99.64,70.34,98.09z M73.23,98.09c0-1.57,2.4-1.56,2.4,0C75.63,99.64,73.23,99.65,73.23,98.09z"/>
	<path fill="#FEFEFF" d="M80.23,100.98c0-1.57,2.4-1.56,2.4,0C82.63,102.53,80.23,102.53,80.23,100.98z M80.23,103.85   c0-1.56,2.4-1.55,2.4,0C82.63,105.41,80.23,105.42,80.23,103.85z M80.23,106.73c0-1.56,2.4-1.55,2.4,0S80.23,108.29,80.23,106.73z    M80.23,109.61c0-1.57,2.4-1.56,2.4,0C82.63,111.16,80.23,111.17,80.23,109.61z M83.11,98.09c0-1.57,2.4-1.56,2.4,0   C85.51,99.64,83.11,99.65,83.11,98.09z M83.11,103.85c0-1.56,2.4-1.55,2.4,0C85.51,105.41,83.11,105.42,83.11,103.85z M83.11,112.5   c0-1.57,2.4-1.56,2.4,0C85.51,114.05,83.11,114.05,83.11,112.5z M85.99,98.09c0-1.57,2.39-1.57,2.39,0   C88.38,99.65,85.99,99.65,85.99,98.09z M85.99,103.85c0-1.55,2.39-1.55,2.39,0C88.39,105.41,85.99,105.41,85.99,103.85z    M85.99,112.5c0-1.57,2.39-1.57,2.39,0C88.38,114.05,85.99,114.05,85.99,112.5z M88.86,98.09c0-1.56,2.4-1.57,2.4,0   C91.27,99.65,88.86,99.64,88.86,98.09z M88.86,103.85c0-1.55,2.4-1.56,2.4,0C91.27,105.42,88.86,105.41,88.86,103.85z M88.86,112.5   c0-1.56,2.4-1.57,2.4,0C91.27,114.05,88.86,114.05,88.86,112.5z M91.75,100.98c0-1.57,2.4-1.56,2.4,0   C94.15,102.53,91.75,102.53,91.75,100.98z M91.75,103.85c0-1.56,2.4-1.55,2.4,0C94.15,105.41,91.75,105.42,91.75,103.85z    M91.75,109.61c0-1.57,2.4-1.56,2.4,0C94.15,111.16,91.75,111.17,91.75,109.61z"/>
	<path fill="#FEFEFF" d="M109.3,98.09c0-1.56,2.4-1.55,2.4,0S109.3,99.65,109.3,98.09z M109.3,100.98c0-1.57,2.4-1.56,2.4,0   C111.7,102.53,109.3,102.53,109.3,100.98z M109.3,103.86c0-1.57,2.4-1.56,2.4,0C111.7,105.41,109.3,105.42,109.3,103.86z    M109.3,106.73c0-1.56,2.4-1.55,2.4,0C111.7,108.29,109.3,108.3,109.3,106.73z M109.3,109.61c0-1.56,2.4-1.55,2.4,0   S109.3,111.17,109.3,109.61z M109.3,112.5c0-1.57,2.4-1.56,2.4,0C111.7,114.05,109.3,114.05,109.3,112.5z M112.18,103.86   c0-1.57,2.4-1.56,2.4,0C114.58,105.41,112.18,105.42,112.18,103.86z M115.07,103.86c0-1.57,2.39-1.57,2.39,0   C117.46,105.41,115.07,105.41,115.07,103.86z M117.94,103.86c0-1.56,2.4-1.57,2.4,0C120.34,105.42,117.94,105.41,117.94,103.86z    M120.82,98.09c0-1.56,2.4-1.55,2.4,0S120.82,99.65,120.82,98.09z M120.82,100.98c0-1.57,2.4-1.56,2.4,0   C123.22,102.53,120.82,102.53,120.82,100.98z M120.82,103.86c0-1.57,2.4-1.56,2.4,0C123.22,105.41,120.82,105.42,120.82,103.86z    M120.82,106.73c0-1.56,2.4-1.55,2.4,0C123.22,108.29,120.82,108.3,120.82,106.73z M120.82,109.61c0-1.56,2.4-1.55,2.4,0   S120.82,111.17,120.82,109.61z M120.82,112.5c0-1.57,2.4-1.56,2.4,0C123.22,114.05,120.82,114.05,120.82,112.5z"/>
	<path fill="#FEFEFF" d="M127.82,106.73c0-1.56,2.4-1.55,2.4,0S127.82,108.29,127.82,106.73z M127.82,109.61c0-1.57,2.4-1.56,2.4,0   C130.22,111.16,127.82,111.17,127.82,109.61z M130.7,98.09c0-1.57,2.4-1.56,2.4,0C133.11,99.64,130.7,99.65,130.7,98.09z    M130.7,103.85c0-1.56,2.4-1.55,2.4,0C133.11,105.41,130.7,105.42,130.7,103.85z M130.7,112.5c0-1.57,2.4-1.56,2.4,0   C133.11,114.05,130.7,114.05,130.7,112.5z M133.59,98.09c0-1.57,2.39-1.57,2.39,0C135.98,99.65,133.59,99.65,133.59,98.09z    M133.59,103.85c0-1.55,2.39-1.55,2.39,0C135.98,105.41,133.59,105.41,133.59,103.85z M133.59,112.5c0-1.57,2.39-1.57,2.39,0   C135.98,114.05,133.59,114.05,133.59,112.5z M136.46,98.09c0-1.56,2.4-1.57,2.4,0C138.86,99.65,136.46,99.64,136.46,98.09z    M136.46,103.85c0-1.55,2.4-1.56,2.4,0C138.86,105.42,136.46,105.41,136.46,103.85z M136.46,112.5c0-1.56,2.4-1.57,2.4,0   C138.86,114.05,136.46,114.05,136.46,112.5z M139.34,100.98c0-1.57,2.4-1.56,2.4,0C141.74,102.53,139.34,102.53,139.34,100.98z    M139.34,103.85c0-1.56,2.4-1.55,2.4,0C141.74,105.41,139.34,105.42,139.34,103.85z M139.34,106.73c0-1.56,2.4-1.55,2.4,0   S139.34,108.29,139.34,106.73z M139.34,109.61c0-1.57,2.4-1.56,2.4,0C141.74,111.16,139.34,111.17,139.34,109.61z M139.34,112.5   c0-1.57,2.4-1.56,2.4,0C141.74,114.05,139.34,114.05,139.34,112.5z"/>
	<path fill="#FEFEFF" d="M156.89,98.09c0-1.57,2.4-1.56,2.4,0C159.29,99.64,156.89,99.65,156.89,98.09z M156.89,100.98   c0-1.57,2.4-1.56,2.4,0C159.29,102.53,156.89,102.53,156.89,100.98z M156.89,103.85c0-1.56,2.4-1.55,2.4,0   C159.3,105.41,156.89,105.42,156.89,103.85z M156.89,106.73c0-1.56,2.4-1.55,2.4,0S156.89,108.29,156.89,106.73z M156.89,109.61   c0-1.57,2.4-1.56,2.4,0C159.29,111.16,156.89,111.17,156.89,109.61z M156.89,112.5c0-1.57,2.4-1.56,2.4,0   C159.29,114.05,156.89,114.05,156.89,112.5z M159.77,103.85c0-1.56,2.4-1.55,2.4,0C162.18,105.41,159.77,105.42,159.77,103.85z    M159.77,106.73c0-1.56,2.4-1.55,2.4,0S159.77,108.29,159.77,106.73z M162.66,100.98c0-1.57,2.39-1.57,2.39,0   C165.05,102.53,162.66,102.53,162.66,100.98z M162.66,109.61c0-1.57,2.39-1.57,2.39,0C165.05,111.17,162.66,111.17,162.66,109.61z    M165.53,98.09c0-1.56,2.4-1.57,2.4,0C167.93,99.65,165.53,99.64,165.53,98.09z M165.53,112.5c0-1.56,2.4-1.57,2.4,0   C167.93,114.05,165.53,114.05,165.53,112.5z"/>
	<path fill="#FEFEFF" d="M172.53,106.73c0-1.56,2.4-1.55,2.4,0S172.53,108.29,172.53,106.73z M172.53,109.61c0-1.57,2.4-1.56,2.4,0   C174.93,111.16,172.53,111.17,172.53,109.61z M175.41,98.09c0-1.57,2.4-1.56,2.4,0C177.81,99.64,175.41,99.65,175.41,98.09z    M175.41,103.85c0-1.56,2.4-1.55,2.4,0C177.82,105.41,175.41,105.42,175.41,103.85z M175.41,112.5c0-1.57,2.4-1.56,2.4,0   C177.81,114.05,175.41,114.05,175.41,112.5z M178.3,98.09c0-1.57,2.39-1.57,2.39,0C180.69,99.65,178.3,99.65,178.3,98.09z    M178.3,103.85c0-1.55,2.39-1.55,2.39,0C180.69,105.41,178.3,105.41,178.3,103.85z M178.3,112.5c0-1.57,2.39-1.57,2.39,0   C180.69,114.05,178.3,114.05,178.3,112.5z M181.17,98.09c0-1.56,2.4-1.57,2.4,0C183.57,99.65,181.17,99.64,181.17,98.09z    M181.17,103.85c0-1.55,2.4-1.56,2.4,0C183.57,105.42,181.17,105.41,181.17,103.85z M181.17,112.5c0-1.56,2.4-1.57,2.4,0   C183.57,114.05,181.17,114.05,181.17,112.5z M184.05,100.98c0-1.57,2.4-1.56,2.4,0C186.45,102.53,184.05,102.53,184.05,100.98z    M184.05,103.85c0-1.56,2.4-1.55,2.4,0C186.45,105.41,184.05,105.42,184.05,103.85z M184.05,106.73c0-1.56,2.4-1.55,2.4,0   S184.05,108.29,184.05,106.73z M184.05,109.61c0-1.57,2.4-1.56,2.4,0C186.45,111.16,184.05,111.17,184.05,109.61z M184.05,112.5   c0-1.57,2.4-1.56,2.4,0C186.45,114.05,184.05,114.05,184.05,112.5z"/>
	<path fill="#FEFEFF" d="M191.05,98.09c0-1.57,2.4-1.56,2.4,0C193.45,99.64,191.05,99.65,191.05,98.09z M191.05,100.98   c0-1.57,2.4-1.56,2.4,0C193.45,102.53,191.05,102.53,191.05,100.98z M191.05,103.85c0-1.56,2.4-1.55,2.4,0   C193.45,105.41,191.05,105.42,191.05,103.85z M191.05,106.73c0-1.56,2.4-1.55,2.4,0S191.05,108.29,191.05,106.73z M191.05,109.61   c0-1.57,2.4-1.56,2.4,0C193.45,111.16,191.05,111.17,191.05,109.61z M191.05,112.5c0-1.57,2.4-1.56,2.4,0   C193.45,114.05,191.05,114.05,191.05,112.5z M191.05,115.37c0-1.57,2.4-1.56,2.4,0C193.45,116.92,191.05,116.92,191.05,115.37z    M191.05,118.25c0-1.57,2.4-1.56,2.4,0C193.45,119.8,191.05,119.81,191.05,118.25z M193.93,98.09c0-1.57,2.4-1.56,2.4,0   C196.33,99.64,193.93,99.65,193.93,98.09z M193.93,112.5c0-1.57,2.4-1.56,2.4,0C196.33,114.05,193.93,114.05,193.93,112.5z    M196.82,98.09c0-1.57,2.39-1.57,2.39,0C199.21,99.65,196.82,99.65,196.82,98.09z M196.82,112.5c0-1.57,2.39-1.57,2.39,0   C199.21,114.05,196.82,114.05,196.82,112.5z M199.69,98.09c0-1.56,2.4-1.57,2.4,0C202.09,99.65,199.69,99.64,199.69,98.09z    M199.69,112.5c0-1.56,2.4-1.57,2.4,0C202.09,114.05,199.69,114.05,199.69,112.5z M202.57,100.98c0-1.57,2.4-1.56,2.4,0   C204.97,102.53,202.57,102.53,202.57,100.98z M202.57,103.85c0-1.56,2.4-1.55,2.4,0C204.97,105.41,202.57,105.42,202.57,103.85z    M202.57,106.73c0-1.56,2.4-1.55,2.4,0S202.57,108.29,202.57,106.73z M202.57,109.61c0-1.57,2.4-1.56,2.4,0   C204.97,111.16,202.57,111.17,202.57,109.61z"/>
	<path fill="#FEFEFF" d="M209.57,98.09c0-1.56,2.4-1.55,2.4,0S209.57,99.65,209.57,98.09z M212.45,98.09c0-1.56,2.4-1.55,2.4,0   S212.45,99.65,212.45,98.09z M215.34,98.09c0-1.55,2.39-1.55,2.39,0C217.73,99.65,215.34,99.65,215.34,98.09z M215.34,100.98   c0-1.57,2.39-1.57,2.39,0C217.73,102.53,215.34,102.53,215.34,100.98z M215.34,103.86c0-1.57,2.39-1.57,2.39,0   C217.73,105.41,215.34,105.41,215.34,103.86z M215.34,106.73c0-1.55,2.39-1.55,2.39,0C217.73,108.3,215.34,108.3,215.34,106.73z    M215.34,109.61c0-1.55,2.39-1.55,2.39,0C217.73,111.17,215.34,111.17,215.34,109.61z M215.34,112.5c0-1.57,2.39-1.57,2.39,0   C217.73,114.05,215.34,114.05,215.34,112.5z M218.21,98.09c0-1.55,2.4-1.56,2.4,0C220.61,99.65,218.21,99.64,218.21,98.09z    M221.09,98.09c0-1.56,2.4-1.55,2.4,0S221.09,99.65,221.09,98.09z"/>
	<path fill="#FEFEFF" d="M228.09,98.09c0-1.57,2.4-1.56,2.4,0C230.49,99.64,228.09,99.65,228.09,98.09z M228.09,100.98   c0-1.57,2.4-1.56,2.4,0C230.49,102.53,228.09,102.53,228.09,100.98z M228.09,103.85c0-1.56,2.4-1.55,2.4,0   C230.49,105.41,228.09,105.42,228.09,103.85z M228.09,106.73c0-1.56,2.4-1.55,2.4,0S228.09,108.29,228.09,106.73z M228.09,109.61   c0-1.57,2.4-1.56,2.4,0C230.49,111.16,228.09,111.17,228.09,109.61z M230.97,112.5c0-1.57,2.4-1.56,2.4,0   C233.37,114.05,230.97,114.05,230.97,112.5z M230.97,118.25c0-1.57,2.4-1.56,2.4,0C233.37,119.8,230.97,119.81,230.97,118.25z    M233.86,112.5c0-1.57,2.39-1.57,2.39,0C236.25,114.05,233.86,114.05,233.86,112.5z M233.86,118.25c0-1.57,2.39-1.57,2.39,0   C236.25,119.8,233.86,119.8,233.86,118.25z M236.73,112.5c0-1.56,2.4-1.57,2.4,0C239.13,114.05,236.73,114.05,236.73,112.5z    M236.73,118.25c0-1.56,2.4-1.57,2.4,0C239.13,119.81,236.73,119.8,236.73,118.25z M239.61,98.09c0-1.57,2.4-1.56,2.4,0   C242.01,99.64,239.61,99.65,239.61,98.09z M239.61,100.98c0-1.57,2.4-1.56,2.4,0C242.01,102.53,239.61,102.53,239.61,100.98z    M239.61,103.85c0-1.56,2.4-1.55,2.4,0C242.01,105.41,239.61,105.42,239.61,103.85z M239.61,106.73c0-1.56,2.4-1.55,2.4,0   S239.61,108.29,239.61,106.73z M239.61,109.61c0-1.57,2.4-1.56,2.4,0C242.01,111.16,239.61,111.17,239.61,109.61z M239.61,112.5   c0-1.57,2.4-1.56,2.4,0C242.01,114.05,239.61,114.05,239.61,112.5z M239.61,115.37c0-1.57,2.4-1.56,2.4,0   C242.01,116.92,239.61,116.92,239.61,115.37z"/>
	<path fill="#FEFEFF" d="M257.16,95.21c0-1.56,2.4-1.55,2.4,0S257.16,96.77,257.16,95.21z M257.16,98.09c0-1.57,2.4-1.56,2.4,0   C259.56,99.64,257.16,99.65,257.16,98.09z M257.16,100.98c0-1.57,2.4-1.56,2.4,0C259.56,102.53,257.16,102.53,257.16,100.98z    M257.16,103.85c0-1.56,2.4-1.55,2.4,0C259.57,105.41,257.16,105.42,257.16,103.85z M257.16,106.73c0-1.56,2.4-1.55,2.4,0   S257.16,108.29,257.16,106.73z M260.05,109.61c0-1.57,2.4-1.56,2.4,0C262.45,111.16,260.05,111.17,260.05,109.61z M262.93,112.5   c0-1.57,2.39-1.57,2.39,0C265.32,114.05,262.93,114.05,262.93,112.5z M265.8,109.61c0-1.56,2.4-1.57,2.4,0   C268.2,111.17,265.8,111.16,265.8,109.61z M268.68,95.21c0-1.56,2.4-1.55,2.4,0S268.68,96.77,268.68,95.21z M268.68,98.09   c0-1.57,2.4-1.56,2.4,0C271.08,99.64,268.68,99.65,268.68,98.09z M268.68,100.98c0-1.57,2.4-1.56,2.4,0   C271.08,102.53,268.68,102.53,268.68,100.98z M268.68,103.85c0-1.56,2.4-1.55,2.4,0C271.09,105.41,268.68,105.42,268.68,103.85z    M268.68,106.73c0-1.56,2.4-1.55,2.4,0S268.68,108.29,268.68,106.73z"/>
	<path fill="#FEFEFF" d="M275.68,95.21c0-1.56,2.4-1.55,2.4,0S275.68,96.77,275.68,95.21z M275.68,98.09c0-1.57,2.4-1.56,2.4,0   C278.08,99.64,275.68,99.65,275.68,98.09z M275.68,100.98c0-1.57,2.4-1.56,2.4,0C278.08,102.53,275.68,102.53,275.68,100.98z    M275.68,103.85c0-1.56,2.4-1.55,2.4,0C278.09,105.41,275.68,105.42,275.68,103.85z M275.68,106.73c0-1.56,2.4-1.55,2.4,0   S275.68,108.29,275.68,106.73z M275.68,109.61c0-1.57,2.4-1.56,2.4,0C278.08,111.16,275.68,111.17,275.68,109.61z M275.68,112.5   c0-1.57,2.4-1.56,2.4,0C278.08,114.05,275.68,114.05,275.68,112.5z"/>
	<path fill="#FEFEFF" d="M282.68,98.09c0-1.57,2.4-1.56,2.4,0C285.09,99.64,282.68,99.65,282.68,98.09z M282.68,100.98   c0-1.57,2.4-1.56,2.4,0C285.09,102.53,282.68,102.53,282.68,100.98z M282.68,109.61c0-1.57,2.4-1.56,2.4,0   C285.09,111.16,282.68,111.17,282.68,109.61z M285.57,95.21c0-1.56,2.4-1.55,2.4,0S285.57,96.77,285.57,95.21z M285.57,103.85   c0-1.56,2.4-1.55,2.4,0C287.97,105.41,285.57,105.42,285.57,103.85z M285.57,112.5c0-1.57,2.4-1.56,2.4,0   C287.97,114.05,285.57,114.05,285.57,112.5z M288.45,95.21c0-1.55,2.39-1.55,2.39,0C290.84,96.76,288.45,96.76,288.45,95.21z    M288.45,103.85c0-1.55,2.39-1.55,2.39,0C290.84,105.41,288.45,105.41,288.45,103.85z M288.45,112.5c0-1.57,2.39-1.57,2.39,0   C290.84,114.05,288.45,114.05,288.45,112.5z M291.32,95.21c0-1.55,2.4-1.56,2.4,0C293.72,96.77,291.32,96.76,291.32,95.21z    M291.32,103.85c0-1.55,2.4-1.56,2.4,0C293.72,105.42,291.32,105.41,291.32,103.85z M291.32,112.5c0-1.56,2.4-1.57,2.4,0   C293.72,114.05,291.32,114.05,291.32,112.5z M294.2,98.09c0-1.57,2.4-1.56,2.4,0C296.61,99.64,294.2,99.65,294.2,98.09z    M294.2,106.73c0-1.56,2.4-1.55,2.4,0S294.2,108.29,294.2,106.73z M294.2,109.61c0-1.57,2.4-1.56,2.4,0   C296.61,111.16,294.2,111.17,294.2,109.61z"/>
	<path fill="#FEFEFF" d="M301.2,98.09c0-1.57,2.4-1.56,2.4,0C303.61,99.64,301.2,99.65,301.2,98.09z M301.2,100.98   c0-1.57,2.4-1.56,2.4,0C303.61,102.53,301.2,102.53,301.2,100.98z M301.2,103.85c0-1.56,2.4-1.55,2.4,0   C303.61,105.41,301.2,105.42,301.2,103.85z M301.2,106.73c0-1.56,2.4-1.55,2.4,0S301.2,108.29,301.2,106.73z M301.2,109.61   c0-1.57,2.4-1.56,2.4,0C303.61,111.16,301.2,111.17,301.2,109.61z M301.2,112.5c0-1.57,2.4-1.56,2.4,0   C303.61,114.05,301.2,114.05,301.2,112.5z M304.09,95.21c0-1.56,2.4-1.55,2.4,0S304.09,96.77,304.09,95.21z M304.09,103.85   c0-1.56,2.4-1.55,2.4,0C306.49,105.41,304.09,105.42,304.09,103.85z M306.97,95.21c0-1.55,2.39-1.55,2.39,0   C309.36,96.76,306.97,96.76,306.97,95.21z M306.97,103.85c0-1.55,2.39-1.55,2.39,0C309.36,105.41,306.97,105.41,306.97,103.85z    M309.84,95.21c0-1.55,2.4-1.56,2.4,0C312.24,96.77,309.84,96.76,309.84,95.21z M309.84,103.85c0-1.55,2.4-1.56,2.4,0   C312.24,105.42,309.84,105.41,309.84,103.85z M312.72,98.09c0-1.57,2.4-1.56,2.4,0C315.12,99.64,312.72,99.65,312.72,98.09z    M312.72,100.98c0-1.57,2.4-1.56,2.4,0C315.12,102.53,312.72,102.53,312.72,100.98z M312.72,103.85c0-1.56,2.4-1.55,2.4,0   C315.13,105.41,312.72,105.42,312.72,103.85z M312.72,106.73c0-1.56,2.4-1.55,2.4,0S312.72,108.29,312.72,106.73z M312.72,109.61   c0-1.57,2.4-1.56,2.4,0C315.12,111.16,312.72,111.17,312.72,109.61z M312.72,112.5c0-1.57,2.4-1.56,2.4,0   C315.12,114.05,312.72,114.05,312.72,112.5z"/>
</g>
    <polyline filter="url(#outer_glow_white)" points="163,74 559,74" fill="none" stroke="#ffffff" stroke-width="6.5" stroke-dasharray="0.1 9" stroke-miterlimit="10" stroke-dashoffset="5" stroke-linecap="round" stroke-linejoin="bevel"/>
</svg>