<!-- Generator: Adobe Illustrator 18.1.1, SVG Export Plug-In . SVG Version: 6.00 Build 0)  -->
<svg version="1.1" id="Isolation_Mode" class="letters" xmlns="http://www.w3.org/2000/svg" xmlns:xlink="http://www.w3.org/1999/xlink" x="0px"
	 y="0px" width="187.8px" height="39.3px" viewBox="945.8 337.9 187.8 39.3" enable-background="new 945.8 337.9 187.8 39.3"
	 xml:space="preserve">
<g>
	<path fill="#ffffff" d="M952.4,365.4c-0.3,3.9-0.3,8.2,0.1,9.4v0.3H947v-0.3c0.5-1.4,1.3-5.6,1.7-9.4l1.6-19.7
		c0.1-2.3-0.2-4.5-0.8-5.3v-0.2h9.5v0.2c0,1.4,3.2,11.3,8.7,26h0.2c6.6-17.1,9.1-24,9.3-26v-0.2h9.6v0.2c-0.4,1.2-0.9,5.4-0.6,9.3
		l0.8,15.7c0.2,3.9,0.6,8.2,1,9.4v0.3h-7.6v-0.3c0.4-2.3,0.4-5.6,0.2-9.4l-0.9-19.1h-0.1c-3.5,8.8-9.2,23.8-10.8,28.8h-4.7
		c-3.4-10.4-8.9-25.8-10-28.5h-0.2L952.4,365.4z"
    data-0="fill: rgb(53, 99, 158);"
    data-1800="fill: rgb(53, 99, 158);"
    data-3600="fill: rgb(255, 255, 255);"
    data-_slide08--5001="fill: rgb(255, 255, 255);"
    data-_slide08--5000="fill: rgb(53, 99, 158);"
  ></path>
	<path fill="#ffffff" d="M997.2,375.1v-0.3c0.4-1.2,0.8-5.6,0.8-9.4v-15.6c0-3.9-0.4-8.1-0.8-9.4v-0.2h17.8l1,4.5h-0.2
		c-1.1-0.5-4.9-1.1-7.5-1.1h-4v11.7h3.9c2.2,0,5-0.1,6.6-1h0.2v5.5h-0.2c-1.6-0.9-4.4-1-6.6-1h-3.9v12.8h6.8c2.7,0,6.8-0.8,8.5-1.8
		h0.3l-1,5.3L997.2,375.1L997.2,375.1z"
    data-0="fill: rgb(53, 99, 158);"
    data-1800="fill: rgb(53, 99, 158);"
    data-3600="fill: rgb(255, 255, 255);"
    data-_slide08--5001="fill: rgb(255, 255, 255);"
    data-_slide08--5000="fill: rgb(53, 99, 158);"
		></path>
	<path fill="#ffffff" d="M1037.7,367.5c6.5-18.1,8.6-25.6,8.7-27.1v-0.2h5.9v0.2c-0.7,0.9-5,10.9-11.6,29.6l-1.7,5.1h-5.5
		c-0.5-1.8-1.1-3.4-1.7-5c-6.7-18.7-10.2-28.5-11-29.7v-0.2h7.9v0.3c0,1.4,3.7,13.1,8.7,27.1H1037.7z"
    data-0="fill: rgb(53, 99, 158);"
    data-1800="fill: rgb(53, 99, 158);"
    data-3600="fill: rgb(255, 255, 255);"
    data-_slide08--5001="fill: rgb(255, 255, 255);"
    data-_slide08--5000="fill: rgb(53, 99, 158);"
		></path>
	<path fill="#ffffff" d="M1065,340.1v0.2c-0.4,1.2-0.8,5.6-0.8,9.4v15.6c0,3.9,0.4,8.2,0.8,9.4v0.3h-7.6v-0.3
		c0.4-1.2,0.8-5.6,0.8-9.4v-15.6c0-3.9-0.4-8.1-0.8-9.4v-0.2H1065z"
    data-0="fill: rgb(53, 99, 158);"
    data-1800="fill: rgb(53, 99, 158);"
    data-3600="fill: rgb(255, 255, 255);"
    data-_slide08--5001="fill: rgb(255, 255, 255);"
    data-_slide08--5000="fill: rgb(53, 99, 158);"
		></path>
	<path fill="#ffffff" d="M1081.5,363.7c0,5.8,2.8,8.4,7.7,8.4c5.2,0,8.2-2.7,8.2-8.4v-11.8c0-3.9-0.3-9.2-1.2-11.5v-0.2h6.1v0.2
		c-0.5,2.2-0.8,7.6-0.8,11.5v12.5c0,7.8-5.8,11.6-12.6,11.6c-9.3,0-13.5-4-13.5-11.6v-14.5c0-3.9-0.4-8.1-0.8-9.4v-0.2h7.6v0.2
		c-0.4,1.2-0.8,5.6-0.8,9.4V363.7L1081.5,363.7z"
    data-0="fill: rgb(53, 99, 158);"
    data-1800="fill: rgb(53, 99, 158);"
    data-3600="fill: rgb(255, 255, 255);"
    data-_slide08--5001="fill: rgb(255, 255, 255);"
    data-_slide08--5000="fill: rgb(53, 99, 158);"
		></path>
	<path fill="#ffffff" d="M1128.7,346.2h-0.4c-1.7-2.6-4.7-3.8-7.4-3.8c-3.1,0-6.1,1.5-6.1,5.2c0,3.2,2.1,4.7,7.4,6.7
		c7.5,2.7,9.8,5.6,9.8,11c0,7.8-6.5,10.9-12.8,10.9c-3.2,0-7.8-0.7-10.7-2.3l1.5-5.4h0.4c2.2,2.9,6.1,4.4,9.1,4.4
		c4,0,7.1-1.7,7.1-5.7c0-3.2-1.9-5.1-8-7.4c-7.5-2.8-9-6.2-9-10.5c0-7,5.9-10.1,11.6-10.1c4.5,0,7.4,1.2,9.1,2.4L1128.7,346.2z"
    data-0="fill: rgb(53, 99, 158);"
    data-1800="fill: rgb(53, 99, 158);"
    data-3600="fill: rgb(255, 255, 255);"
    data-_slide08--5001="fill: rgb(255, 255, 255);"
    data-_slide08--5000="fill: rgb(53, 99, 158);"
		></path>
</g>
</svg>
