<!-- Generator: Adobe Illustrator 18.1.1, SVG Export Plug-In . SVG Version: 6.00 Build 0)  -->
<svg version="1.1" id="Layer_1" xmlns="http://www.w3.org/2000/svg" xmlns:xlink="http://www.w3.org/1999/xlink" x="0px" y="0px"
	 width="144px" height="115px" viewBox="-10 -10 166 140" enable-background="new 0 0 165 130" xml:space="preserve">
<filter  width="160%" height="160%" filterUnits="objectBoundingBox" id="outer_glow_white" x="-30%" y="-30%">
	<feGaussianBlur  stdDeviation="4" result="glow"></feGaussianBlur>
	<feMerge>
		<feMergeNode  in="glow"></feMergeNode>
		<feMergeNode  in="SourceGraphic"></feMergeNode>
	</feMerge>
</filter>
    <defs>
        <mask id="maskCheck">
            <circle cx="60" cy="60" r="40" fill="#ffffff"/>
            <polyline id="check" points="73,52 52,78 40,65" stroke="#000000" stroke-dasharray="60" stroke-dashoffset="60" stroke-linecap="round" stroke-width="7" fill="none" stroke-miterlimit="10" x="60" y="60">
                <animate attributeType="XML" attributeName="stroke-dashoffset" values="60; 0" begin="2.5ms" dur="250ms" fill="freeze" repeatCount="1" class="ico-quest" />
            </polyline>
        </mask>
    </defs>
<g id="svgDnD" filter="url(#outer_glow_white)">
    <ellipse id="svgDrag" fill="#FFFFFF" cx="125" cy="20" rx="20" ry="20">
        <animate attributeName="cx" attributeType="XML" dur="300ms" from="125" to="55" begin="2s" fill="freeze" class="ico-quest" />
        <animate attributeName="cy" attributeType="XML" dur="200ms" from="20" to="65" begin="2s" fill="freeze" class="ico-quest" />
        <animate attributeType="XML" attributeName="opacity" dur="0s" begin="2.5ms" values="0" fill="freeze" class="ico-quest" />
    </ellipse> 
		<ellipse id="svgFirstRing" fill="none" stroke="#FFFFFF" stroke-width="3.5" stroke-miterlimit="10" cx="55.09" cy="68.32" rx="41.43" ry="41.42"/>
    <circle id="svgScndRing" fill="none" stroke="#FFFFFF" stroke-width="3.5" stroke-miterlimit="10" cx="55" cy="65" r="28">
        <animate attributeType="XML" attributeName="r" from="22" to="53" dur="250ms" begin="2.6ms" fill="freeze" repeatCount="1" class="ico-quest" />
    </circle>
	<circle cx="55" cy="65" r="33" fill="#ffffff" style=" mask: url(#maskCheck)"/>
</g>
</svg>
