<?xml version="1.0" encoding="utf-8"?>
<!-- Generator: Adobe Illustrator 18.1.1, SVG Export Plug-In . SVG Version: 6.00 Build 0)  -->
<svg version="1.1" id="Calque_1" xmlns="http://www.w3.org/2000/svg" xmlns:xlink="http://www.w3.org/1999/xlink" x="0px" y="0px"
	 width="185px" height="105.38px" viewBox="0 0 185 105.38" enable-background="new 0 0 185 105.38" xml:space="preserve">
<g>
	<g>
		<g>
			<path fill="#FFFFFF" d="M27.77,69.07c2.45-0.4,4.16-1.06,5.12-2c0.96-0.94,1.44-2.42,1.44-4.43v-3.08c0-2.62-0.54-4.39-1.64-5.29
				c-1.09-0.89-3.12-1.34-6.1-1.34H8.27c-2.97,0-5.01,0.45-6.1,1.34c-1.1,0.9-1.64,2.67-1.64,5.29v2.1l6.7,1.25v-4.2h16.73
				c1.41,0,2.28,0.23,2.67,0.69c0.37,0.46,0.56,1.26,0.56,2.39v1.7c0,0.84-0.09,1.47-0.26,1.91c-0.31,0.79-1.29,1.18-2.96,1.18
				H13.79v5.52H25.2c1.14,0,1.97,0.18,2.5,0.53c0.53,0.35,0.79,1.21,0.79,2.56v2.49c0,1.13-0.19,1.92-0.59,2.36
				c-0.4,0.44-1.3,0.66-2.7,0.66H6.96v-4.73L0,77.41v2.76c0,2.62,0.55,4.39,1.64,5.28c1.09,0.9,3.13,1.35,6.11,1.35h19.69
				c3.2,0,5.38-0.57,6.56-1.71c1.1-1,1.65-2.86,1.65-5.58v-3.55C35.64,71.9,33.02,69.6,27.77,69.07z"/>
			<path fill="#FFFFFF" d="M126.12,60.93c0-3.11-0.55-5.21-1.64-6.33c-1.09-1.11-3.13-1.67-6.1-1.67H95.46
				c-2.99,0-5.02,0.56-6.1,1.67c-1.1,1.12-1.65,3.23-1.65,6.33v17.86c0,3.1,0.54,5.21,1.65,6.33c1.09,1.11,3.11,1.67,6.1,1.67h22.91
				c2.97,0,5.01-0.56,6.1-1.67c1.09-1.12,1.64-3.23,1.64-6.33V60.93z M94.8,80.69V58.7h24.23v21.99H94.8z"/>
			<path fill="#FFFFFF" d="M79.92,72.53c0-2.71-0.55-4.57-1.63-5.58c-1.19-1.14-3.38-1.71-6.57-1.71H51.89
				c1.33-2.8,3.6-4.76,6.81-5.88c3.16-1.13,8.09-1.71,14.84-1.71h2.16l-4.65-5.45c-1.05-0.09-1.87-0.13-2.43-0.13
				c-7.96,0-14.12,1.73-18.48,5.18c-4.04,3.21-6.18,7.65-6.47,13.3c-0.03,0.41-0.05,0.83-0.05,1.29c0,0.02,0,8.29,0,8.29
				c0,2.62,0.54,4.39,1.64,5.29c1.09,0.9,3.13,1.35,6.11,1.35h20.36c3.19,0,5.38-0.57,6.57-1.71c1.09-1.01,1.63-2.86,1.63-5.58
				V72.53z M72.84,77.66c0,1.14-0.2,1.93-0.59,2.36c-0.39,0.44-1.29,0.66-2.69,0.66H50.6v-9.56h18.96c1.13,0,1.96,0.18,2.49,0.53
				c0.52,0.35,0.78,1.2,0.78,2.56V77.66z"/>
		</g>
		<g>
			<polygon fill="#FFFFFF" points="4.14,105.38 7.82,105.38 7.82,100.35 14.39,100.35 14.39,97.84 7.82,97.84 7.82,94.34 
				19.99,94.34 19.99,91.93 4.14,91.93 			"/>
			<rect x="25.13" y="91.93" fill="#FFFFFF" width="3.64" height="13.45"/>
			<polygon fill="#FFFFFF" points="40.64,91.93 36.97,91.93 36.97,105.38 52.36,105.38 52.36,102.87 40.64,102.87 			"/>
			<polygon fill="#FFFFFF" points="56.08,94.34 63.29,94.34 63.29,105.38 66.92,105.38 66.92,94.34 74.16,94.34 74.16,91.93 
				56.08,91.93 			"/>
			<polygon fill="#FFFFFF" points="84.1,99.56 91.3,99.56 91.3,97.24 84.1,97.24 84.1,94.31 96.46,94.31 96.46,91.93 80.42,91.93 
				80.42,105.38 96.64,105.38 96.64,102.87 84.1,102.87 			"/>
			<path fill="#FFFFFF" d="M116.92,100.29c2.34,0,3.5-0.86,3.5-2.57v-3.18c0-1.74-1.16-2.61-3.5-2.61h-13.46v13.45h3.61v-5.09h3.42
				l6.25,5.09h5.24l-7.1-5.09H116.92z M107.06,97.97v-3.72h8.29c1.11,0,1.67,0.35,1.67,1.08v1.56c0,0.72-0.57,1.08-1.67,1.08H107.06
				z"/>
		</g>
		<g>
			<g>
				<path opacity="0.71" fill="#FFFFFF" d="M126.71,50.38c0.48,0,0.87-0.39,0.87-0.87c0-0.48-0.39-0.87-0.87-0.87
					c-0.48,0-0.87,0.39-0.87,0.87C125.85,49.99,126.24,50.38,126.71,50.38z"/>
				<path opacity="0.71" fill="#FFFFFF" d="M150.94,50.38c-0.48,0-0.87-0.39-0.87-0.87c0-0.48,0.39-0.87,0.87-0.87
					c0.48,0,0.87,0.39,0.87,0.87C151.81,49.99,151.42,50.38,150.94,50.38z"/>
				<path opacity="0.8" fill="#FFFFFF" d="M129.33,7.73c1.78-0.4,2.9-2.18,2.5-3.97c-0.41-1.79-2.18-2.9-3.97-2.5
					c-1.78,0.4-2.91,2.18-2.5,3.96C125.76,7.02,127.54,8.13,129.33,7.73z"/>
				<path opacity="0.71" fill="#FFFFFF" d="M120.17,10.6c1.48-0.71,2.11-2.5,1.4-3.98c-0.71-1.49-2.49-2.11-3.98-1.4
					c-1.49,0.71-2.11,2.5-1.4,3.98C116.9,10.68,118.67,11.31,120.17,10.6z"/>
				<path opacity="0.56" fill="#FFFFFF" d="M112.63,15.25c1.31-1,1.56-2.87,0.56-4.19c-1.01-1.31-2.88-1.56-4.19-0.55
					c-1.31,1-1.56,2.87-0.56,4.18C109.44,16,111.31,16.25,112.63,15.25z"/>
				<path opacity="0.35" fill="#FFFFFF" d="M105.97,20.59c0.86-0.95,0.78-2.42-0.17-3.28c-0.95-0.86-2.42-0.78-3.28,0.17
					c-0.86,0.95-0.79,2.42,0.16,3.28C103.64,21.61,105.11,21.53,105.97,20.59z"/>
				<path opacity="0.23" fill="#FFFFFF" d="M98.41,27.02c0.93,0.6,2.17,0.32,2.77-0.61c0.59-0.94,0.32-2.17-0.62-2.77
					c-0.93-0.6-2.17-0.32-2.77,0.61C97.2,25.19,97.46,26.43,98.41,27.02z"/>
				<path opacity="0.13" fill="#FFFFFF" d="M95.45,33.67c0.84,0.35,1.83-0.04,2.18-0.88c0.35-0.85-0.04-1.82-0.88-2.17
					c-0.84-0.36-1.81,0.03-2.17,0.88C94.22,32.34,94.61,33.31,95.45,33.67z"/>
				<path opacity="0.09" fill="#FFFFFF" d="M93.68,40.24c0.71,0.17,1.43-0.27,1.59-0.99c0.17-0.71-0.26-1.43-0.98-1.59
					c-0.71-0.17-1.42,0.27-1.59,0.98C92.52,39.35,92.96,40.06,93.68,40.24z"/>
				<path fill="#FFFFFF" d="M138.83,6.64c1.83,0,3.32-1.49,3.32-3.32c0-1.83-1.49-3.32-3.32-3.32c-1.83,0-3.31,1.49-3.31,3.32
					C135.51,5.15,137,6.64,138.83,6.64z"/>
				<path opacity="0.8" fill="#FFFFFF" d="M130.06,10.91c-1.43,0.33-2.33,1.74-2,3.17c0.32,1.43,1.74,2.33,3.17,2
					c1.43-0.32,2.32-1.75,2-3.18C132.9,11.48,131.48,10.59,130.06,10.91z"/>
				<path opacity="0.71" fill="#FFFFFF" d="M120.72,17.26c0.56,1.19,1.99,1.69,3.18,1.12c1.19-0.57,1.68-2,1.12-3.19
					c-0.58-1.19-1.99-1.69-3.19-1.12C120.65,14.64,120.15,16.07,120.72,17.26z"/>
				<path opacity="0.62" fill="#FFFFFF" d="M117.86,22.1c1.05-0.8,1.25-2.3,0.46-3.35c-0.81-1.04-2.3-1.24-3.36-0.45
					c-1.04,0.8-1.24,2.3-0.44,3.35C115.32,22.7,116.82,22.9,117.86,22.1z"/>
				<path opacity="0.52" fill="#FFFFFF" d="M112.54,26.37c0.69-0.76,0.62-1.94-0.14-2.63c-0.76-0.69-1.94-0.62-2.62,0.14
					c-0.69,0.76-0.63,1.94,0.14,2.62C110.67,27.19,111.85,27.13,112.54,26.37z"/>
				<path opacity="0.4" fill="#FFFFFF" d="M105.99,29.3c-0.48,0.75-0.26,1.74,0.49,2.22c0.75,0.48,1.74,0.26,2.21-0.49
					c0.48-0.75,0.25-1.74-0.49-2.21C107.46,28.34,106.47,28.56,105.99,29.3z"/>
				<path opacity="0.33" fill="#FFFFFF" d="M105.17,34.39c-0.69-0.29-1.46,0.03-1.75,0.71c-0.28,0.67,0.03,1.45,0.71,1.74
					c0.68,0.28,1.46-0.03,1.74-0.7C106.16,35.46,105.83,34.68,105.17,34.39z"/>
				<path opacity="0.33" fill="#FFFFFF" d="M102.7,42.09c0.58,0.14,1.14-0.22,1.29-0.78c0.13-0.57-0.22-1.14-0.79-1.28
					c-0.57-0.14-1.14,0.22-1.28,0.79C101.78,41.38,102.13,41.95,102.7,42.09z"/>
				<path opacity="0.33" fill="#FFFFFF" d="M102.18,45.54c-0.58-0.05-1.1,0.37-1.15,0.96c-0.07,0.58,0.37,1.1,0.95,1.15
					c0.59,0.06,1.1-0.37,1.16-0.96C103.2,46.11,102.77,45.6,102.18,45.54z"/>
				<path fill="#FFFFFF" d="M138.83,9.91c-1.47,0-2.65,1.19-2.65,2.65c0,1.46,1.18,2.65,2.65,2.65c1.46,0,2.65-1.19,2.65-2.65
					C141.48,11.09,140.29,9.91,138.83,9.91z"/>
				<path opacity="0.8" fill="#FFFFFF" d="M131.81,18.64c-1.14,0.26-1.86,1.39-1.6,2.54c0.26,1.14,1.4,1.86,2.54,1.6
					c1.14-0.26,1.85-1.4,1.6-2.54C134.09,19.09,132.96,18.38,131.81,18.64z"/>
				<path opacity="0.71" fill="#FFFFFF" d="M125.23,21.16c-0.95,0.46-1.35,1.59-0.9,2.55c0.46,0.95,1.6,1.35,2.54,0.89
					c0.96-0.46,1.36-1.6,0.91-2.54C127.32,21.11,126.19,20.71,125.23,21.16z"/>
				<path opacity="0.71" fill="#FFFFFF" d="M122.42,24.91c-0.65-0.84-1.84-1-2.68-0.36c-0.84,0.64-1,1.84-0.36,2.68
					c0.65,0.84,1.84,1,2.68,0.36C122.9,26.94,123.06,25.74,122.42,24.91z"/>
				<path opacity="0.62" fill="#FFFFFF" d="M117.8,31c0.54-0.61,0.5-1.55-0.11-2.1c-0.61-0.55-1.54-0.5-2.1,0.11
					c-0.55,0.61-0.5,1.55,0.11,2.1C116.31,31.66,117.25,31.61,117.8,31z"/>
				<path opacity="0.48" fill="#FFFFFF" d="M112.57,33.35c-0.39,0.6-0.21,1.39,0.4,1.77c0.59,0.39,1.37,0.21,1.76-0.39
					c0.39-0.6,0.21-1.39-0.39-1.77C113.74,32.57,112.95,32.75,112.57,33.35z"/>
				<path opacity="0.48" fill="#FFFFFF" d="M112.47,38.81c0.22-0.54-0.03-1.17-0.57-1.39c-0.54-0.23-1.16,0.02-1.39,0.56
					c-0.23,0.54,0.02,1.16,0.57,1.39C111.61,39.6,112.23,39.35,112.47,38.81z"/>
				<path opacity="0.48" fill="#FFFFFF" d="M110.95,42.95c0.11-0.46-0.17-0.91-0.63-1.02c-0.46-0.11-0.91,0.17-1.03,0.63
					c-0.1,0.45,0.18,0.91,0.63,1.02C110.38,43.69,110.84,43.4,110.95,42.95z"/>
				<path opacity="0.48" fill="#FFFFFF" d="M109.51,46.34c-0.47-0.04-0.88,0.3-0.93,0.76c-0.04,0.47,0.29,0.89,0.76,0.93
					c0.47,0.05,0.88-0.3,0.93-0.76C110.32,46.79,109.97,46.38,109.51,46.34z"/>
				<path fill="#FFFFFF" d="M138.83,17.82c-1.18,0-2.12,0.95-2.12,2.12c0,1.17,0.94,2.13,2.12,2.13c1.17,0,2.12-0.95,2.12-2.13
					C140.95,18.78,140,17.82,138.83,17.82z"/>
				<path opacity="0.8" fill="#FFFFFF" d="M133.21,24.81c-0.91,0.21-1.49,1.12-1.27,2.03c0.2,0.92,1.11,1.49,2.03,1.28
					c0.91-0.21,1.48-1.11,1.28-2.03C135.04,25.18,134.13,24.6,133.21,24.81z"/>
				<path opacity="0.8" fill="#FFFFFF" d="M127.95,26.84c-0.76,0.36-1.08,1.27-0.72,2.03c0.37,0.76,1.28,1.08,2.04,0.72
					c0.76-0.37,1.08-1.28,0.72-2.04C129.63,26.79,128.72,26.47,127.95,26.84z"/>
				<path opacity="0.71" fill="#FFFFFF" d="M123.27,31.68c0.51,0.67,1.47,0.8,2.14,0.29c0.67-0.51,0.8-1.47,0.29-2.14
					c-0.51-0.67-1.48-0.8-2.15-0.28C122.89,30.05,122.76,31.01,123.27,31.68z"/>
				<path opacity="0.71" fill="#FFFFFF" d="M120.24,33.11c-0.44,0.49-0.41,1.24,0.08,1.68c0.49,0.43,1.24,0.4,1.69-0.09
					c0.44-0.49,0.4-1.24-0.09-1.68C121.43,32.58,120.67,32.62,120.24,33.11z"/>
				<path opacity="0.62" fill="#FFFFFF" d="M118.14,38c0.48,0.3,1.11,0.17,1.41-0.32c0.31-0.48,0.17-1.11-0.31-1.42
					c-0.48-0.3-1.11-0.16-1.42,0.31C117.51,37.06,117.65,37.69,118.14,38z"/>
				<path opacity="0.58" fill="#FFFFFF" d="M117.73,40.95c0.19-0.43-0.01-0.93-0.44-1.12c-0.43-0.19-0.93,0.02-1.11,0.45
					c-0.19,0.43,0.01,0.93,0.45,1.11C117.05,41.58,117.55,41.38,117.73,40.95z"/>
				<path opacity="0.58" fill="#FFFFFF" d="M116.52,44.26c0.09-0.37-0.14-0.73-0.5-0.82c-0.36-0.09-0.73,0.14-0.82,0.5
					c-0.08,0.36,0.14,0.73,0.5,0.81C116.08,44.85,116.44,44.62,116.52,44.26z"/>
				<path opacity="0.58" fill="#FFFFFF" d="M115.37,46.97c-0.38-0.04-0.7,0.24-0.74,0.61c-0.03,0.38,0.24,0.71,0.61,0.74
					c0.37,0.03,0.71-0.24,0.74-0.61C116.02,47.34,115.75,47.01,115.37,46.97z"/>
				<path fill="#FFFFFF" d="M138.83,24.16c-0.94,0-1.7,0.76-1.7,1.7c0,0.94,0.76,1.7,1.7,1.7c0.94,0,1.69-0.76,1.69-1.7
					C140.52,24.92,139.77,24.16,138.83,24.16z"/>
				<path opacity="0.8" fill="#FFFFFF" d="M134.34,29.75c-0.74,0.17-1.2,0.9-1.03,1.62c0.16,0.74,0.89,1.2,1.62,1.03
					c0.74-0.17,1.2-0.89,1.03-1.62C135.8,30.04,135.07,29.58,134.34,29.75z"/>
				<path opacity="0.8" fill="#FFFFFF" d="M130.13,31.37c-0.61,0.3-0.87,1.03-0.57,1.63c0.28,0.61,1.02,0.87,1.63,0.57
					c0.61-0.3,0.86-1.02,0.58-1.63C131.47,31.34,130.74,31.08,130.13,31.37z"/>
				<path opacity="0.71" fill="#FFFFFF" d="M128.1,35.48c0.54-0.41,0.65-1.18,0.23-1.72c-0.41-0.53-1.17-0.64-1.71-0.23
					c-0.53,0.41-0.64,1.18-0.23,1.71C126.79,35.79,127.55,35.88,128.1,35.48z"/>
				<path opacity="0.71" fill="#FFFFFF" d="M123.96,36.39c-0.36,0.39-0.33,1,0.06,1.34c0.4,0.36,0.99,0.32,1.34-0.07
					c0.36-0.39,0.32-0.99-0.07-1.35C124.91,35.97,124.3,36,123.96,36.39z"/>
				<path opacity="0.71" fill="#FFFFFF" d="M122.27,40.3c0.38,0.24,0.89,0.13,1.13-0.25c0.25-0.38,0.13-0.89-0.25-1.14
					c-0.38-0.24-0.9-0.13-1.13,0.25C121.77,39.55,121.88,40.06,122.27,40.3z"/>
				<path opacity="0.71" fill="#FFFFFF" d="M121.95,42.66c0.15-0.34-0.01-0.74-0.36-0.89c-0.34-0.15-0.74,0.01-0.88,0.36
					c-0.15,0.34,0.01,0.74,0.36,0.89C121.4,43.17,121.81,43,121.95,42.66z"/>
				<path opacity="0.71" fill="#FFFFFF" d="M120.99,45.31c0.07-0.3-0.11-0.58-0.41-0.66c-0.29-0.07-0.58,0.11-0.65,0.4
					c-0.07,0.29,0.11,0.58,0.41,0.65C120.63,45.78,120.92,45.6,120.99,45.31z"/>
				<path opacity="0.71" fill="#FFFFFF" d="M120.06,47.48c-0.3-0.03-0.56,0.19-0.59,0.49c-0.03,0.3,0.2,0.57,0.49,0.59
					c0.3,0.03,0.57-0.19,0.6-0.48C120.58,47.77,120.37,47.51,120.06,47.48z"/>
				<path fill="#FFFFFF" d="M138.83,29.24c-0.75,0-1.36,0.61-1.36,1.35c0,0.75,0.61,1.36,1.36,1.36c0.75,0,1.36-0.61,1.36-1.36
					C140.18,29.84,139.58,29.24,138.83,29.24z"/>
				<path opacity="0.79" fill="#FFFFFF" d="M135.24,33.7c-0.59,0.13-0.96,0.71-0.82,1.3c0.13,0.58,0.71,0.95,1.3,0.82
					c0.59-0.13,0.95-0.71,0.82-1.3C136.4,33.94,135.82,33.57,135.24,33.7z"/>
				<path opacity="0.8" fill="#FFFFFF" d="M133.17,35.46c-0.24-0.49-0.81-0.69-1.3-0.46c-0.48,0.23-0.68,0.82-0.46,1.31
					c0.24,0.48,0.82,0.69,1.31,0.46C133.2,36.53,133.4,35.94,133.17,35.46z"/>
				<path opacity="0.8" fill="#FFFFFF" d="M130.43,36.91c-0.33-0.43-0.95-0.51-1.37-0.18c-0.43,0.32-0.52,0.94-0.19,1.37
					c0.34,0.43,0.95,0.51,1.38,0.19C130.67,37.96,130.75,37.34,130.43,36.91z"/>
				<path opacity="0.71" fill="#FFFFFF" d="M128.06,40.04c0.27-0.32,0.25-0.8-0.06-1.08c-0.31-0.28-0.79-0.26-1.08,0.05
					c-0.27,0.31-0.25,0.79,0.06,1.07C127.3,40.37,127.78,40.34,128.06,40.04z"/>
				<path opacity="0.71" fill="#FFFFFF" d="M126.49,41.94c0.19-0.31,0.1-0.71-0.21-0.91c-0.31-0.2-0.72-0.11-0.91,0.2
					c-0.2,0.31-0.1,0.72,0.2,0.91C125.88,42.34,126.29,42.25,126.49,41.94z"/>
				<path opacity="0.71" fill="#FFFFFF" d="M125.32,44.03c0.12-0.27-0.01-0.59-0.28-0.71c-0.27-0.12-0.6,0.01-0.71,0.29
					c-0.12,0.27,0.02,0.59,0.29,0.71C124.89,44.44,125.21,44.31,125.32,44.03z"/>
				<path opacity="0.71" fill="#FFFFFF" d="M124.23,45.63c-0.24-0.05-0.47,0.09-0.53,0.32c-0.06,0.23,0.09,0.47,0.32,0.52
					c0.23,0.05,0.47-0.09,0.53-0.32C124.61,45.91,124.46,45.68,124.23,45.63z"/>
				<path opacity="0.71" fill="#FFFFFF" d="M123.73,48.75c0.24,0.02,0.46-0.16,0.48-0.39c0.02-0.24-0.15-0.45-0.39-0.48
					c-0.24-0.02-0.46,0.15-0.48,0.39C123.32,48.52,123.5,48.73,123.73,48.75z"/>
				<path fill="#FFFFFF" d="M139.91,34.38c0-0.6-0.49-1.09-1.09-1.09c-0.6,0-1.09,0.49-1.09,1.09c0,0.6,0.48,1.09,1.09,1.09
					C139.42,35.46,139.91,34.98,139.91,34.38z"/>
				<path opacity="0.71" fill="#FFFFFF" d="M126.18,46.64c-0.11,0.47,0.18,0.93,0.65,1.04c0.47,0.11,0.94-0.19,1.05-0.66
					c0.1-0.47-0.19-0.93-0.66-1.04C126.76,45.88,126.29,46.17,126.18,46.64z"/>
				<path opacity="0.71" fill="#FFFFFF" d="M127.22,43.95c-0.19,0.39-0.03,0.86,0.36,1.04c0.39,0.19,0.86,0.02,1.05-0.37
					s0.02-0.85-0.37-1.04C127.87,43.39,127.4,43.56,127.22,43.95z"/>
				<path opacity="0.71" fill="#FFFFFF" d="M129.84,42.65c0.27-0.34,0.2-0.83-0.14-1.1c-0.34-0.26-0.84-0.2-1.11,0.14
					c-0.25,0.35-0.19,0.84,0.15,1.1C129.09,43.05,129.58,42.99,129.84,42.65z"/>
				<path opacity="0.8" fill="#FFFFFF" d="M131.24,40.9c0.25-0.22,0.27-0.61,0.04-0.86c-0.23-0.25-0.6-0.27-0.86-0.04
					c-0.24,0.22-0.27,0.61-0.04,0.86C130.61,41.1,130.99,41.13,131.24,40.9z"/>
				<path opacity="0.8" fill="#FFFFFF" d="M132.21,38.76c-0.25,0.16-0.32,0.48-0.17,0.73c0.16,0.24,0.48,0.32,0.73,0.16
					c0.24-0.16,0.32-0.48,0.16-0.73C132.78,38.67,132.45,38.6,132.21,38.76z"/>
				<path opacity="0.8" fill="#FFFFFF" d="M134.11,37.92c-0.23,0.09-0.32,0.34-0.23,0.56c0.09,0.23,0.35,0.33,0.57,0.24
					c0.22-0.1,0.32-0.35,0.23-0.57C134.58,37.93,134.33,37.82,134.11,37.92z"/>
				<path opacity="0.8" fill="#FFFFFF" d="M135.72,37.84c0.04,0.19,0.23,0.31,0.42,0.26c0.18-0.04,0.3-0.24,0.26-0.43
					c-0.05-0.18-0.23-0.3-0.43-0.26C135.78,37.46,135.67,37.66,135.72,37.84z"/>
				<path opacity="0.8" fill="#FFFFFF" d="M148.32,7.73c-1.78-0.4-2.9-2.18-2.5-3.97c0.41-1.79,2.18-2.9,3.97-2.5
					c1.78,0.4,2.91,2.18,2.5,3.96C151.89,7.02,150.12,8.13,148.32,7.73z"/>
				<path opacity="0.71" fill="#FFFFFF" d="M157.49,10.6c-1.48-0.71-2.11-2.5-1.4-3.98c0.71-1.49,2.49-2.11,3.98-1.4
					c1.49,0.71,2.11,2.5,1.4,3.98C160.76,10.68,158.99,11.31,157.49,10.6z"/>
				<path opacity="0.56" fill="#FFFFFF" d="M165.03,15.25c-1.31-1-1.56-2.87-0.56-4.19c1.01-1.31,2.88-1.56,4.19-0.55
					c1.31,1,1.56,2.87,0.56,4.18C168.22,16,166.34,16.25,165.03,15.25z"/>
				<path opacity="0.35" fill="#FFFFFF" d="M171.69,20.59c-0.86-0.95-0.78-2.42,0.17-3.28c0.95-0.86,2.42-0.78,3.28,0.17
					c0.86,0.95,0.79,2.42-0.16,3.28C174.02,21.61,172.55,21.53,171.69,20.59z"/>
				<path opacity="0.23" fill="#FFFFFF" d="M179.25,27.02c-0.93,0.6-2.17,0.32-2.77-0.61c-0.59-0.94-0.32-2.17,0.62-2.77
					c0.93-0.6,2.17-0.32,2.77,0.61C180.46,25.19,180.19,26.43,179.25,27.02z"/>
				<path opacity="0.13" fill="#FFFFFF" d="M182.2,33.67c-0.84,0.35-1.83-0.04-2.18-0.88c-0.35-0.85,0.04-1.82,0.88-2.17
					c0.84-0.36,1.81,0.03,2.17,0.88C183.44,32.34,183.04,33.31,182.2,33.67z"/>
				<path opacity="0.09" fill="#FFFFFF" d="M183.98,40.24c-0.71,0.17-1.43-0.27-1.59-0.99c-0.17-0.71,0.26-1.43,0.98-1.59
					c0.71-0.17,1.42,0.27,1.59,0.98C185.14,39.35,184.7,40.06,183.98,40.24z"/>
				<path opacity="0.8" fill="#FFFFFF" d="M147.6,10.91c1.43,0.33,2.33,1.74,2,3.17c-0.32,1.43-1.74,2.33-3.17,2
					c-1.43-0.32-2.32-1.75-2-3.18C144.75,11.48,146.17,10.59,147.6,10.91z"/>
				<path opacity="0.71" fill="#FFFFFF" d="M156.94,17.26c-0.56,1.19-1.99,1.69-3.18,1.12c-1.19-0.57-1.68-2-1.12-3.19
					c0.58-1.19,1.99-1.69,3.19-1.12C157.01,14.64,157.51,16.07,156.94,17.26z"/>
				<path opacity="0.62" fill="#FFFFFF" d="M159.79,22.1c-1.05-0.8-1.25-2.3-0.46-3.35c0.81-1.04,2.3-1.24,3.36-0.45
					c1.04,0.8,1.24,2.3,0.44,3.35C162.33,22.7,160.83,22.9,159.79,22.1z"/>
				<path opacity="0.52" fill="#FFFFFF" d="M165.12,26.37c-0.69-0.76-0.62-1.94,0.14-2.63c0.76-0.69,1.94-0.62,2.62,0.14
					c0.69,0.76,0.63,1.94-0.14,2.62C166.98,27.19,165.8,27.13,165.12,26.37z"/>
				<path opacity="0.4" fill="#FFFFFF" d="M171.66,29.3c0.48,0.75,0.26,1.74-0.49,2.22c-0.75,0.48-1.74,0.26-2.21-0.49
					c-0.48-0.75-0.25-1.74,0.49-2.21C170.2,28.34,171.18,28.56,171.66,29.3z"/>
				<path opacity="0.33" fill="#FFFFFF" d="M172.49,34.39c0.69-0.29,1.46,0.03,1.75,0.71c0.28,0.67-0.03,1.45-0.71,1.74
					c-0.68,0.28-1.46-0.03-1.74-0.7C171.5,35.46,171.82,34.68,172.49,34.39z"/>
				<path opacity="0.33" fill="#FFFFFF" d="M174.95,42.09c-0.58,0.14-1.14-0.22-1.29-0.78c-0.13-0.57,0.22-1.14,0.79-1.28
					c0.57-0.14,1.14,0.22,1.28,0.79C175.87,41.38,175.52,41.95,174.95,42.09z"/>
				<path opacity="0.33" fill="#FFFFFF" d="M175.48,45.54c0.58-0.05,1.1,0.37,1.15,0.96c0.07,0.58-0.37,1.1-0.95,1.15
					c-0.59,0.06-1.1-0.37-1.16-0.96C174.46,46.11,174.89,45.6,175.48,45.54z"/>
				<path opacity="0.8" fill="#FFFFFF" d="M145.85,18.64c1.14,0.26,1.86,1.39,1.6,2.54c-0.26,1.14-1.4,1.86-2.54,1.6
					c-1.14-0.26-1.85-1.4-1.6-2.54C143.56,19.09,144.7,18.38,145.85,18.64z"/>
				<path opacity="0.71" fill="#FFFFFF" d="M152.42,21.16c0.95,0.46,1.35,1.59,0.9,2.55c-0.46,0.95-1.6,1.35-2.54,0.89
					c-0.96-0.46-1.36-1.6-0.91-2.54C150.33,21.11,151.47,20.71,152.42,21.16z"/>
				<path opacity="0.71" fill="#FFFFFF" d="M155.24,24.91c0.65-0.84,1.84-1,2.68-0.36c0.84,0.64,1,1.84,0.36,2.68
					c-0.65,0.84-1.84,1-2.68,0.36C154.76,26.94,154.6,25.74,155.24,24.91z"/>
				<path opacity="0.62" fill="#FFFFFF" d="M159.86,31c-0.54-0.61-0.5-1.55,0.11-2.1c0.61-0.55,1.54-0.5,2.1,0.11
					c0.55,0.61,0.5,1.55-0.11,2.1C161.35,31.66,160.41,31.61,159.86,31z"/>
				<path opacity="0.48" fill="#FFFFFF" d="M165.09,33.35c0.39,0.6,0.21,1.39-0.4,1.77c-0.59,0.39-1.37,0.21-1.76-0.39
					c-0.39-0.6-0.21-1.39,0.39-1.77C163.92,32.57,164.71,32.75,165.09,33.35z"/>
				<path opacity="0.48" fill="#FFFFFF" d="M165.19,38.81c-0.22-0.54,0.03-1.17,0.57-1.39c0.54-0.23,1.16,0.02,1.39,0.56
					c0.23,0.54-0.02,1.16-0.57,1.39C166.05,39.6,165.43,39.35,165.19,38.81z"/>
				<path opacity="0.48" fill="#FFFFFF" d="M166.71,42.95c-0.11-0.46,0.17-0.91,0.63-1.02c0.46-0.11,0.91,0.17,1.03,0.63
					c0.1,0.45-0.18,0.91-0.63,1.02C167.27,43.69,166.81,43.4,166.71,42.95z"/>
				<path opacity="0.48" fill="#FFFFFF" d="M168.14,46.34c0.47-0.04,0.88,0.3,0.93,0.76c0.04,0.47-0.29,0.89-0.76,0.93
					c-0.47,0.05-0.88-0.3-0.93-0.76C167.33,46.79,167.68,46.38,168.14,46.34z"/>
				<path opacity="0.8" fill="#FFFFFF" d="M144.44,24.81c0.91,0.21,1.49,1.12,1.27,2.03c-0.2,0.92-1.11,1.49-2.03,1.28
					c-0.91-0.21-1.48-1.11-1.28-2.03C142.62,25.18,143.53,24.6,144.44,24.81z"/>
				<path opacity="0.8" fill="#FFFFFF" d="M149.7,26.84c0.76,0.36,1.08,1.27,0.72,2.03c-0.37,0.76-1.28,1.08-2.04,0.72
					c-0.76-0.37-1.08-1.28-0.72-2.04C148.03,26.79,148.94,26.47,149.7,26.84z"/>
				<path opacity="0.71" fill="#FFFFFF" d="M154.38,31.68c-0.51,0.67-1.47,0.8-2.14,0.29c-0.67-0.51-0.8-1.47-0.29-2.14
					c0.51-0.67,1.48-0.8,2.15-0.28C154.76,30.05,154.9,31.01,154.38,31.68z"/>
				<path opacity="0.71" fill="#FFFFFF" d="M157.42,33.11c0.44,0.49,0.41,1.24-0.08,1.68c-0.49,0.43-1.24,0.4-1.69-0.09
					c-0.44-0.49-0.4-1.24,0.09-1.68C156.22,32.58,156.98,32.62,157.42,33.11z"/>
				<path opacity="0.62" fill="#FFFFFF" d="M159.52,38c-0.48,0.3-1.11,0.17-1.41-0.32c-0.31-0.48-0.17-1.11,0.31-1.42
					c0.48-0.3,1.11-0.16,1.42,0.31C160.14,37.06,160,37.69,159.52,38z"/>
				<path opacity="0.58" fill="#FFFFFF" d="M159.93,40.95c-0.19-0.43,0.01-0.93,0.44-1.12c0.43-0.19,0.93,0.02,1.11,0.45
					c0.19,0.43-0.01,0.93-0.45,1.11C160.61,41.58,160.11,41.38,159.93,40.95z"/>
				<path opacity="0.58" fill="#FFFFFF" d="M161.13,44.26c-0.09-0.37,0.14-0.73,0.5-0.82c0.36-0.09,0.73,0.14,0.82,0.5
					c0.08,0.36-0.14,0.73-0.5,0.81C161.58,44.85,161.21,44.62,161.13,44.26z"/>
				<path opacity="0.58" fill="#FFFFFF" d="M162.28,46.97c0.38-0.04,0.7,0.24,0.74,0.61c0.03,0.38-0.24,0.71-0.61,0.74
					c-0.37,0.03-0.71-0.24-0.74-0.61C161.63,47.34,161.9,47.01,162.28,46.97z"/>
				<path opacity="0.8" fill="#FFFFFF" d="M143.32,29.75c0.74,0.17,1.2,0.9,1.03,1.62c-0.16,0.74-0.89,1.2-1.62,1.03
					c-0.74-0.17-1.2-0.89-1.03-1.62C141.86,30.04,142.59,29.58,143.32,29.75z"/>
				<path opacity="0.8" fill="#FFFFFF" d="M147.53,31.37c0.61,0.3,0.87,1.03,0.57,1.63c-0.28,0.61-1.02,0.87-1.63,0.57
					c-0.61-0.3-0.86-1.02-0.58-1.63C146.19,31.34,146.92,31.08,147.53,31.37z"/>
				<path opacity="0.71" fill="#FFFFFF" d="M149.56,35.48c-0.54-0.41-0.65-1.18-0.23-1.72c0.41-0.53,1.17-0.64,1.71-0.23
					c0.53,0.41,0.64,1.18,0.23,1.71C150.87,35.79,150.1,35.88,149.56,35.48z"/>
				<path opacity="0.71" fill="#FFFFFF" d="M153.7,36.39c0.36,0.39,0.33,1-0.06,1.34c-0.4,0.36-0.99,0.32-1.34-0.07
					c-0.36-0.39-0.32-0.99,0.07-1.35C152.74,35.97,153.35,36,153.7,36.39z"/>
				<path opacity="0.71" fill="#FFFFFF" d="M155.38,40.3c-0.38,0.24-0.89,0.13-1.13-0.25c-0.25-0.38-0.13-0.89,0.25-1.14
					c0.38-0.24,0.9-0.13,1.13,0.25C155.89,39.55,155.77,40.06,155.38,40.3z"/>
				<path opacity="0.71" fill="#FFFFFF" d="M155.7,42.66c-0.15-0.34,0.01-0.74,0.36-0.89c0.34-0.15,0.74,0.01,0.88,0.36
					c0.15,0.34-0.01,0.74-0.36,0.89C156.26,43.17,155.85,43,155.7,42.66z"/>
				<path opacity="0.71" fill="#FFFFFF" d="M156.67,45.31c-0.07-0.3,0.11-0.58,0.41-0.66c0.29-0.07,0.58,0.11,0.65,0.4
					c0.07,0.29-0.11,0.58-0.41,0.65C157.03,45.78,156.74,45.6,156.67,45.31z"/>
				<path opacity="0.71" fill="#FFFFFF" d="M157.59,47.48c0.3-0.03,0.56,0.19,0.59,0.49c0.03,0.3-0.2,0.57-0.49,0.59
					c-0.3,0.03-0.57-0.19-0.6-0.48C157.08,47.77,157.29,47.51,157.59,47.48z"/>
				<path opacity="0.79" fill="#FFFFFF" d="M142.42,33.7c0.59,0.13,0.96,0.71,0.82,1.3c-0.13,0.58-0.71,0.95-1.3,0.82
					c-0.59-0.13-0.95-0.71-0.82-1.3C141.26,33.94,141.84,33.57,142.42,33.7z"/>
				<path opacity="0.8" fill="#FFFFFF" d="M144.49,35.46c0.24-0.49,0.81-0.69,1.3-0.46c0.48,0.23,0.68,0.82,0.46,1.31
					c-0.24,0.48-0.82,0.69-1.31,0.46C144.46,36.53,144.25,35.94,144.49,35.46z"/>
				<path opacity="0.8" fill="#FFFFFF" d="M147.23,36.91c0.33-0.43,0.95-0.51,1.37-0.18c0.43,0.32,0.52,0.94,0.19,1.37
					c-0.34,0.43-0.95,0.51-1.38,0.19C146.99,37.96,146.91,37.34,147.23,36.91z"/>
				<path opacity="0.71" fill="#FFFFFF" d="M149.59,40.04c-0.27-0.32-0.25-0.8,0.06-1.08c0.31-0.28,0.79-0.26,1.08,0.05
					c0.27,0.31,0.25,0.79-0.06,1.07C150.36,40.37,149.88,40.34,149.59,40.04z"/>
				<path opacity="0.71" fill="#FFFFFF" d="M151.16,41.94c-0.19-0.31-0.1-0.71,0.21-0.91c0.31-0.2,0.72-0.11,0.91,0.2
					c0.2,0.31,0.1,0.72-0.2,0.91C151.77,42.34,151.37,42.25,151.16,41.94z"/>
				<path opacity="0.71" fill="#FFFFFF" d="M152.33,44.03c-0.12-0.27,0.01-0.59,0.28-0.71c0.27-0.12,0.6,0.01,0.71,0.29
					c0.12,0.27-0.02,0.59-0.29,0.71C152.76,44.44,152.44,44.31,152.33,44.03z"/>
				<path opacity="0.71" fill="#FFFFFF" d="M153.42,45.63c0.24-0.05,0.47,0.09,0.53,0.32c0.06,0.23-0.09,0.47-0.32,0.52
					c-0.23,0.05-0.47-0.09-0.53-0.32C153.05,45.91,153.19,45.68,153.42,45.63z"/>
				<path opacity="0.71" fill="#FFFFFF" d="M153.93,48.75c-0.24,0.02-0.46-0.16-0.48-0.39c-0.02-0.24,0.15-0.45,0.39-0.48
					c0.24-0.02,0.46,0.15,0.48,0.39C154.34,48.52,154.16,48.73,153.93,48.75z"/>
				<path opacity="0.71" fill="#FFFFFF" d="M151.48,46.64c0.11,0.47-0.18,0.93-0.65,1.04c-0.47,0.11-0.94-0.19-1.05-0.66
					c-0.1-0.47,0.19-0.93,0.66-1.04C150.9,45.88,151.37,46.17,151.48,46.64z"/>
				<path opacity="0.71" fill="#FFFFFF" d="M150.44,43.95c0.19,0.39,0.03,0.86-0.36,1.04c-0.39,0.19-0.86,0.02-1.05-0.37
					s-0.02-0.85,0.37-1.04C149.79,43.39,150.26,43.56,150.44,43.95z"/>
				<path opacity="0.71" fill="#FFFFFF" d="M147.82,42.65c-0.27-0.34-0.2-0.83,0.14-1.1c0.34-0.26,0.84-0.2,1.11,0.14
					c0.25,0.35,0.19,0.84-0.15,1.1C148.57,43.05,148.08,42.99,147.82,42.65z"/>
				<path opacity="0.8" fill="#FFFFFF" d="M146.41,40.9c-0.25-0.22-0.27-0.61-0.04-0.86c0.23-0.25,0.6-0.27,0.86-0.04
					c0.24,0.22,0.27,0.61,0.04,0.86C147.04,41.1,146.67,41.13,146.41,40.9z"/>
				<path opacity="0.8" fill="#FFFFFF" d="M145.45,38.76c0.25,0.16,0.32,0.48,0.17,0.73c-0.16,0.24-0.48,0.32-0.73,0.16
					c-0.24-0.16-0.32-0.48-0.16-0.73C144.88,38.67,145.2,38.6,145.45,38.76z"/>
				<path opacity="0.8" fill="#FFFFFF" d="M143.55,37.92c0.23,0.09,0.32,0.34,0.23,0.56c-0.09,0.23-0.35,0.33-0.57,0.24
					c-0.22-0.1-0.32-0.35-0.23-0.57C143.08,37.93,143.33,37.82,143.55,37.92z"/>
				<path opacity="0.8" fill="#FFFFFF" d="M141.94,37.84c-0.04,0.19-0.23,0.31-0.42,0.26c-0.18-0.04-0.3-0.24-0.26-0.43
					c0.05-0.18,0.23-0.3,0.43-0.26C141.87,37.46,141.99,37.66,141.94,37.84z"/>
				<path fill="#FFFFFF" d="M137.52,37.51c0.02,0.19,0.2,0.33,0.38,0.31c0.19-0.02,0.33-0.19,0.31-0.38
					c-0.02-0.19-0.19-0.33-0.38-0.31C137.65,37.14,137.51,37.32,137.52,37.51z"/>
				<path fill="#FFFFFF" d="M139.75,37.82c0.19,0.02,0.36-0.13,0.39-0.31c0.02-0.19-0.12-0.36-0.32-0.38
					c-0.18-0.02-0.36,0.12-0.37,0.31C139.42,37.63,139.56,37.81,139.75,37.82z"/>
				<path opacity="0.8" fill="#FFFFFF" d="M129.33,91.3c1.78,0.4,2.9,2.18,2.5,3.97c-0.41,1.79-2.18,2.9-3.97,2.5
					c-1.78-0.4-2.91-2.18-2.5-3.96C125.76,92.01,127.54,90.9,129.33,91.3z"/>
				<path fill="#FFFFFF" d="M138.83,92.39c1.83,0,3.32,1.49,3.32,3.32c0,1.83-1.49,3.32-3.32,3.32c-1.83,0-3.31-1.49-3.31-3.32
					C135.51,93.88,137,92.39,138.83,92.39z"/>
				<path opacity="0.8" fill="#FFFFFF" d="M130.06,88.12c-1.43-0.33-2.33-1.74-2-3.17c0.32-1.43,1.74-2.33,3.17-2
					c1.43,0.32,2.32,1.75,2,3.18C132.9,87.55,131.48,88.44,130.06,88.12z"/>
				<path opacity="0.33" fill="#FFFFFF" d="M101.98,51.38c-0.29,0.03-0.55,0.18-0.72,0.39c0.54,0,1.09,0,1.63,0
					C102.67,51.51,102.34,51.34,101.98,51.38z"/>
				<path fill="#FFFFFF" d="M138.83,89.12c-1.47,0-2.65-1.19-2.65-2.65c0-1.46,1.18-2.65,2.65-2.65c1.46,0,2.65,1.19,2.65,2.65
					C141.48,87.94,140.29,89.12,138.83,89.12z"/>
				<path opacity="0.8" fill="#FFFFFF" d="M131.81,80.39c-1.14-0.26-1.86-1.39-1.6-2.54c0.26-1.14,1.4-1.86,2.54-1.6
					c1.14,0.26,1.85,1.4,1.6,2.54C134.09,79.94,132.96,80.65,131.81,80.39z"/>
				<path opacity="0.71" fill="#FFFFFF" d="M126.88,74.42c-0.03-0.02-0.07-0.01-0.11-0.03c0,1.01,0,2.27,0,3.51
					c0.43-0.17,0.8-0.49,1.01-0.94C128.24,76.02,127.84,74.88,126.88,74.42z"/>
				<path opacity="0.48" fill="#FFFFFF" d="M109.35,51.01c-0.41,0.04-0.71,0.37-0.75,0.76c0.56,0,1.12,0,1.67,0
					C110.23,51.3,109.82,50.96,109.35,51.01z"/>
				<path fill="#FFFFFF" d="M138.83,81.2c-1.18,0-2.12-0.95-2.12-2.12c0-1.17,0.94-2.13,2.12-2.13c1.17,0,2.12,0.95,2.12,2.13
					C140.95,80.25,140,81.2,138.83,81.2z"/>
				<path opacity="0.8" fill="#FFFFFF" d="M133.21,74.22c-0.91-0.21-1.49-1.12-1.27-2.03c0.2-0.92,1.11-1.49,2.03-1.28
					c0.91,0.21,1.48,1.11,1.28,2.03C135.04,73.85,134.13,74.43,133.21,74.22z"/>
				<path opacity="0.8" fill="#FFFFFF" d="M127.95,72.19c-0.76-0.36-1.08-1.27-0.72-2.03c0.37-0.76,1.28-1.08,2.04-0.72
					c0.76,0.37,1.08,1.28,0.72,2.04C129.63,72.24,128.72,72.56,127.95,72.19z"/>
				<path opacity="0.58" fill="#FFFFFF" d="M115.37,52.05c-0.38,0.04-0.7-0.24-0.74-0.61c-0.03-0.38,0.24-0.71,0.61-0.74
					c0.37-0.03,0.71,0.24,0.74,0.61C116.02,51.69,115.75,52.02,115.37,52.05z"/>
				<path fill="#FFFFFF" d="M138.83,74.86c-0.94,0-1.7-0.76-1.7-1.7c0-0.94,0.76-1.7,1.7-1.7c0.94,0,1.69,0.76,1.69,1.7
					C140.52,74.1,139.77,74.86,138.83,74.86z"/>
				<path opacity="0.8" fill="#FFFFFF" d="M134.34,69.28c-0.74-0.17-1.2-0.9-1.03-1.62c0.16-0.74,0.89-1.2,1.62-1.03
					c0.74,0.17,1.2,0.89,1.03,1.62C135.8,68.99,135.07,69.45,134.34,69.28z"/>
				<path opacity="0.8" fill="#FFFFFF" d="M130.13,67.66c-0.61-0.3-0.87-1.03-0.57-1.63c0.28-0.61,1.02-0.87,1.63-0.57
					c0.61,0.3,0.86,1.02,0.58,1.63C131.47,67.69,130.74,67.95,130.13,67.66z"/>
				<path opacity="0.71" fill="#FFFFFF" d="M128.1,63.55c-0.4-0.3-0.92-0.32-1.33-0.09c0,0.71,0,1.41,0,2.12
					c0.52,0.29,1.18,0.18,1.56-0.3C128.74,64.73,128.64,63.96,128.1,63.55z"/>
				<path opacity="0.71" fill="#FFFFFF" d="M120.06,51.55c-0.3,0.03-0.56-0.19-0.59-0.49c-0.03-0.3,0.2-0.57,0.49-0.59
					c0.3-0.03,0.57,0.19,0.6,0.48C120.58,51.26,120.37,51.52,120.06,51.55z"/>
				<path fill="#FFFFFF" d="M138.83,69.79c-0.75,0-1.36-0.61-1.36-1.35c0-0.75,0.61-1.36,1.36-1.36c0.75,0,1.36,0.61,1.36,1.36
					C140.18,69.19,139.58,69.79,138.83,69.79z"/>
				<path opacity="0.79" fill="#FFFFFF" d="M135.24,65.32c-0.59-0.13-0.96-0.71-0.82-1.3c0.13-0.58,0.71-0.95,1.3-0.82
					c0.59,0.13,0.95,0.71,0.82,1.3C136.4,65.09,135.82,65.46,135.24,65.32z"/>
				<path opacity="0.8" fill="#FFFFFF" d="M133.17,63.57c-0.24,0.49-0.81,0.69-1.3,0.46c-0.48-0.23-0.68-0.82-0.46-1.31
					c0.24-0.48,0.82-0.69,1.31-0.46C133.2,62.5,133.4,63.08,133.17,63.57z"/>
				<path opacity="0.8" fill="#FFFFFF" d="M130.43,62.11c-0.33,0.43-0.95,0.51-1.37,0.18c-0.43-0.32-0.52-0.94-0.19-1.37
					c0.34-0.43,0.95-0.51,1.38-0.19C130.67,61.07,130.75,61.68,130.43,62.11z"/>
				<path opacity="0.71" fill="#FFFFFF" d="M128.06,58.99c0.27,0.32,0.25,0.8-0.06,1.08c-0.31,0.28-0.79,0.26-1.08-0.05
					c-0.27-0.31-0.25-0.79,0.06-1.07C127.3,58.66,127.78,58.68,128.06,58.99z"/>
				<path opacity="0.71" fill="#FFFFFF" d="M124.23,53.4c-0.24,0.05-0.47-0.09-0.53-0.32c-0.06-0.23,0.09-0.47,0.32-0.52
					c0.23-0.05,0.47,0.09,0.53,0.32C124.61,53.11,124.46,53.35,124.23,53.4z"/>
				<path opacity="0.71" fill="#FFFFFF" d="M123.73,50.28c0.24-0.02,0.46,0.16,0.48,0.39c0.02,0.24-0.15,0.45-0.39,0.48
					c-0.24,0.02-0.46-0.15-0.48-0.39C123.32,50.51,123.5,50.3,123.73,50.28z"/>
				<path fill="#FFFFFF" d="M139.91,64.65c0,0.6-0.49,1.09-1.09,1.09c-0.6,0-1.09-0.49-1.09-1.09c0-0.6,0.48-1.09,1.09-1.09
					C139.42,63.56,139.91,64.05,139.91,64.65z"/>
				<path opacity="0.71" fill="#FFFFFF" d="M126.18,52.39c-0.11-0.47,0.18-0.93,0.65-1.04c0.47-0.11,0.94,0.19,1.05,0.66
					c0.1,0.47-0.19,0.93-0.66,1.04C126.76,53.15,126.29,52.86,126.18,52.39z"/>
				<path opacity="0.71" fill="#FFFFFF" d="M127.22,55.08c-0.19-0.39-0.03-0.86,0.36-1.04c0.39-0.19,0.86-0.02,1.05,0.37
					s0.02,0.85-0.37,1.04C127.87,55.63,127.4,55.47,127.22,55.08z"/>
				<path opacity="0.71" fill="#FFFFFF" d="M129.84,56.38c0.27,0.34,0.2,0.83-0.14,1.1c-0.34,0.26-0.84,0.2-1.11-0.14
					c-0.25-0.35-0.19-0.84,0.15-1.1C129.09,55.97,129.58,56.03,129.84,56.38z"/>
				<path opacity="0.8" fill="#FFFFFF" d="M131.24,58.13c0.25,0.22,0.27,0.61,0.04,0.86c-0.23,0.25-0.6,0.27-0.86,0.04
					c-0.24-0.22-0.27-0.61-0.04-0.86C130.61,57.93,130.99,57.9,131.24,58.13z"/>
				<path opacity="0.8" fill="#FFFFFF" d="M132.21,60.27c-0.25-0.16-0.32-0.48-0.17-0.73c0.16-0.24,0.48-0.32,0.73-0.16
					c0.24,0.16,0.32,0.48,0.16,0.73C132.78,60.36,132.45,60.43,132.21,60.27z"/>
				<path opacity="0.8" fill="#FFFFFF" d="M134.11,61.11c-0.23-0.09-0.32-0.34-0.23-0.56c0.09-0.23,0.35-0.33,0.57-0.24
					c0.22,0.1,0.32,0.35,0.23,0.57C134.58,61.1,134.33,61.21,134.11,61.11z"/>
				<path opacity="0.8" fill="#FFFFFF" d="M135.72,61.19c0.04-0.19,0.23-0.31,0.42-0.26c0.18,0.04,0.3,0.24,0.26,0.43
					c-0.05,0.18-0.23,0.3-0.43,0.26C135.78,61.56,135.67,61.37,135.72,61.19z"/>
				<path opacity="0.8" fill="#FFFFFF" d="M148.32,91.3c-1.78,0.4-2.9,2.18-2.5,3.97c0.41,1.79,2.18,2.9,3.97,2.5
					c1.78-0.4,2.91-2.18,2.5-3.96C151.89,92.01,150.12,90.9,148.32,91.3z"/>
				<path opacity="0.71" fill="#FFFFFF" d="M157.49,88.43c-1.48,0.71-2.11,2.5-1.4,3.98c0.71,1.49,2.49,2.11,3.98,1.4
					c1.49-0.71,2.11-2.5,1.4-3.98C160.76,88.34,158.99,87.72,157.49,88.43z"/>
				<path opacity="0.56" fill="#FFFFFF" d="M165.03,83.78c-1.31,1-1.56,2.87-0.56,4.19c1.01,1.31,2.88,1.56,4.19,0.55
					c1.31-1,1.56-2.87,0.56-4.18C168.22,83.03,166.34,82.78,165.03,83.78z"/>
				<path opacity="0.35" fill="#FFFFFF" d="M171.69,78.44c-0.86,0.95-0.78,2.42,0.17,3.28c0.95,0.86,2.42,0.78,3.28-0.17
					c0.86-0.95,0.79-2.42-0.16-3.28C174.02,77.42,172.55,77.49,171.69,78.44z"/>
				<path opacity="0.23" fill="#FFFFFF" d="M179.25,72.01c-0.93-0.6-2.17-0.32-2.77,0.61c-0.59,0.94-0.32,2.17,0.62,2.77
					c0.93,0.6,2.17,0.32,2.77-0.61C180.46,73.84,180.19,72.6,179.25,72.01z"/>
				<path opacity="0.13" fill="#FFFFFF" d="M182.2,65.36c-0.84-0.35-1.83,0.04-2.18,0.88c-0.35,0.85,0.04,1.82,0.88,2.17
					c0.84,0.36,1.81-0.03,2.17-0.88C183.44,66.69,183.04,65.72,182.2,65.36z"/>
				<path opacity="0.09" fill="#FFFFFF" d="M183.98,58.79c-0.71-0.17-1.43,0.27-1.59,0.99c-0.17,0.71,0.26,1.43,0.98,1.59
					c0.71,0.17,1.42-0.27,1.59-0.98C185.14,59.68,184.7,58.97,183.98,58.79z"/>
				<path opacity="0.8" fill="#FFFFFF" d="M147.6,88.12c1.43-0.33,2.33-1.74,2-3.17c-0.32-1.43-1.74-2.33-3.17-2
					c-1.43,0.32-2.32,1.75-2,3.18C144.75,87.55,146.17,88.44,147.6,88.12z"/>
				<path opacity="0.71" fill="#FFFFFF" d="M156.94,81.77c-0.56-1.19-1.99-1.69-3.18-1.12c-1.19,0.57-1.68,2-1.12,3.19
					c0.58,1.19,1.99,1.69,3.19,1.12C157.01,84.39,157.51,82.96,156.94,81.77z"/>
				<path opacity="0.62" fill="#FFFFFF" d="M159.79,76.93c-1.05,0.8-1.25,2.3-0.46,3.35c0.81,1.04,2.3,1.24,3.36,0.45
					c1.04-0.8,1.24-2.3,0.44-3.35C162.33,76.33,160.83,76.13,159.79,76.93z"/>
				<path opacity="0.52" fill="#FFFFFF" d="M165.12,72.66c-0.69,0.76-0.62,1.94,0.14,2.63c0.76,0.69,1.94,0.62,2.62-0.14
					c0.69-0.76,0.63-1.94-0.14-2.62C166.98,71.84,165.8,71.9,165.12,72.66z"/>
				<path opacity="0.4" fill="#FFFFFF" d="M171.66,69.72c0.48-0.75,0.26-1.74-0.49-2.22c-0.75-0.48-1.74-0.26-2.21,0.49
					c-0.48,0.75-0.25,1.74,0.49,2.21C170.2,70.69,171.18,70.47,171.66,69.72z"/>
				<path opacity="0.33" fill="#FFFFFF" d="M172.49,64.63c0.69,0.29,1.46-0.03,1.75-0.71c0.28-0.67-0.03-1.45-0.71-1.74
					c-0.68-0.28-1.46,0.03-1.74,0.7C171.5,63.57,171.82,64.34,172.49,64.63z"/>
				<path opacity="0.33" fill="#FFFFFF" d="M174.95,56.94c-0.58-0.14-1.14,0.22-1.29,0.78c-0.13,0.57,0.22,1.14,0.79,1.28
					c0.57,0.14,1.14-0.22,1.28-0.79C175.87,57.65,175.52,57.08,174.95,56.94z"/>
				<path opacity="0.33" fill="#FFFFFF" d="M175.48,53.49c0.58,0.05,1.1-0.37,1.15-0.96c0.07-0.58-0.37-1.1-0.95-1.15
					c-0.59-0.06-1.1,0.37-1.16,0.96C174.46,52.92,174.89,53.43,175.48,53.49z"/>
				<path opacity="0.8" fill="#FFFFFF" d="M145.85,80.39c1.14-0.26,1.86-1.39,1.6-2.54c-0.26-1.14-1.4-1.86-2.54-1.6
					c-1.14,0.26-1.85,1.4-1.6,2.54C143.56,79.94,144.7,80.65,145.85,80.39z"/>
				<path opacity="0.71" fill="#FFFFFF" d="M152.42,77.86c0.95-0.46,1.35-1.59,0.9-2.55c-0.46-0.95-1.6-1.35-2.54-0.89
					c-0.96,0.46-1.36,1.6-0.91,2.54C150.33,77.92,151.47,78.32,152.42,77.86z"/>
				<path opacity="0.71" fill="#FFFFFF" d="M155.24,74.12c0.65,0.84,1.84,1,2.68,0.36c0.84-0.64,1-1.84,0.36-2.68
					c-0.65-0.84-1.84-1-2.68-0.36C154.76,72.09,154.6,73.29,155.24,74.12z"/>
				<path opacity="0.62" fill="#FFFFFF" d="M159.86,68.03c-0.54,0.61-0.5,1.55,0.11,2.1c0.61,0.55,1.54,0.5,2.1-0.11
					c0.55-0.61,0.5-1.55-0.11-2.1C161.35,67.37,160.41,67.42,159.86,68.03z"/>
				<path opacity="0.48" fill="#FFFFFF" d="M165.09,65.68c0.39-0.6,0.21-1.39-0.4-1.77c-0.59-0.39-1.37-0.21-1.76,0.39
					c-0.39,0.6-0.21,1.39,0.39,1.77C163.92,66.46,164.71,66.28,165.09,65.68z"/>
				<path opacity="0.48" fill="#FFFFFF" d="M165.19,60.22c-0.22,0.54,0.03,1.17,0.57,1.39c0.54,0.23,1.16-0.02,1.39-0.56
					c0.23-0.54-0.02-1.16-0.57-1.39C166.05,59.43,165.43,59.68,165.19,60.22z"/>
				<path opacity="0.48" fill="#FFFFFF" d="M166.71,56.08c-0.11,0.46,0.17,0.91,0.63,1.02c0.46,0.11,0.91-0.17,1.03-0.63
					c0.1-0.45-0.18-0.91-0.63-1.02C167.27,55.34,166.81,55.63,166.71,56.08z"/>
				<path opacity="0.48" fill="#FFFFFF" d="M168.14,52.69c0.47,0.04,0.88-0.3,0.93-0.76c0.04-0.47-0.29-0.89-0.76-0.93
					c-0.47-0.05-0.88,0.3-0.93,0.76C167.33,52.24,167.68,52.65,168.14,52.69z"/>
				<path opacity="0.8" fill="#FFFFFF" d="M144.44,74.22c0.91-0.21,1.49-1.12,1.27-2.03c-0.2-0.92-1.11-1.49-2.03-1.28
					c-0.91,0.21-1.48,1.11-1.28,2.03C142.62,73.85,143.53,74.43,144.44,74.22z"/>
				<path opacity="0.8" fill="#FFFFFF" d="M149.7,72.19c0.76-0.36,1.08-1.27,0.72-2.03c-0.37-0.76-1.28-1.08-2.04-0.72
					c-0.76,0.37-1.08,1.28-0.72,2.04C148.03,72.24,148.94,72.56,149.7,72.19z"/>
				<path opacity="0.71" fill="#FFFFFF" d="M154.38,67.35c-0.51-0.67-1.47-0.8-2.14-0.29c-0.67,0.51-0.8,1.47-0.29,2.14
					c0.51,0.67,1.48,0.8,2.15,0.28C154.76,68.98,154.9,68.02,154.38,67.35z"/>
				<path opacity="0.71" fill="#FFFFFF" d="M157.42,65.92c0.44-0.49,0.41-1.24-0.08-1.68c-0.49-0.43-1.24-0.4-1.69,0.09
					c-0.44,0.49-0.4,1.24,0.09,1.68C156.22,66.44,156.98,66.41,157.42,65.92z"/>
				<path opacity="0.62" fill="#FFFFFF" d="M159.52,61.03c-0.48-0.3-1.11-0.17-1.41,0.32c-0.31,0.48-0.17,1.11,0.31,1.42
					c0.48,0.3,1.11,0.16,1.42-0.31C160.14,61.97,160,61.34,159.52,61.03z"/>
				<path opacity="0.58" fill="#FFFFFF" d="M159.93,58.07c-0.19,0.43,0.01,0.93,0.44,1.12c0.43,0.19,0.93-0.02,1.11-0.45
					c0.19-0.43-0.01-0.93-0.45-1.11C160.61,57.45,160.11,57.65,159.93,58.07z"/>
				<path opacity="0.58" fill="#FFFFFF" d="M161.13,54.77c-0.09,0.37,0.14,0.73,0.5,0.82c0.36,0.09,0.73-0.14,0.82-0.5
					c0.08-0.36-0.14-0.73-0.5-0.81C161.58,54.18,161.21,54.41,161.13,54.77z"/>
				<path opacity="0.58" fill="#FFFFFF" d="M162.28,52.05c0.38,0.04,0.7-0.24,0.74-0.61c0.03-0.38-0.24-0.71-0.61-0.74
					c-0.37-0.03-0.71,0.24-0.74,0.61C161.63,51.69,161.9,52.02,162.28,52.05z"/>
				<path opacity="0.8" fill="#FFFFFF" d="M143.32,69.28c0.74-0.17,1.2-0.9,1.03-1.62c-0.16-0.74-0.89-1.2-1.62-1.03
					c-0.74,0.17-1.2,0.89-1.03,1.62C141.86,68.99,142.59,69.45,143.32,69.28z"/>
				<path opacity="0.8" fill="#FFFFFF" d="M147.53,67.66c0.61-0.3,0.87-1.03,0.57-1.63c-0.28-0.61-1.02-0.87-1.63-0.57
					c-0.61,0.3-0.86,1.02-0.58,1.63C146.19,67.69,146.92,67.95,147.53,67.66z"/>
				<path opacity="0.71" fill="#FFFFFF" d="M149.56,63.55c-0.54,0.41-0.65,1.18-0.23,1.72c0.41,0.53,1.17,0.64,1.71,0.23
					c0.53-0.41,0.64-1.18,0.23-1.71C150.87,63.24,150.1,63.15,149.56,63.55z"/>
				<path opacity="0.71" fill="#FFFFFF" d="M153.7,62.64c0.36-0.39,0.33-1-0.06-1.34c-0.4-0.36-0.99-0.32-1.34,0.07
					c-0.36,0.39-0.32,0.99,0.07,1.35C152.74,63.06,153.35,63.03,153.7,62.64z"/>
				<path opacity="0.71" fill="#FFFFFF" d="M155.38,58.73c-0.38-0.24-0.89-0.13-1.13,0.25c-0.25,0.38-0.13,0.89,0.25,1.14
					c0.38,0.24,0.9,0.13,1.13-0.25C155.89,59.48,155.77,58.97,155.38,58.73z"/>
				<path opacity="0.71" fill="#FFFFFF" d="M155.7,56.37c-0.15,0.34,0.01,0.74,0.36,0.89c0.34,0.15,0.74-0.01,0.88-0.36
					c0.15-0.34-0.01-0.74-0.36-0.89C156.26,55.86,155.85,56.02,155.7,56.37z"/>
				<path opacity="0.71" fill="#FFFFFF" d="M156.67,53.72c-0.07,0.3,0.11,0.58,0.41,0.66c0.29,0.07,0.58-0.11,0.65-0.4
					c0.07-0.29-0.11-0.58-0.41-0.65C157.03,53.25,156.74,53.43,156.67,53.72z"/>
				<path opacity="0.71" fill="#FFFFFF" d="M157.59,51.55c0.3,0.03,0.56-0.19,0.59-0.49c0.03-0.3-0.2-0.57-0.49-0.59
					c-0.3-0.03-0.57,0.19-0.6,0.48C157.08,51.26,157.29,51.52,157.59,51.55z"/>
				<path opacity="0.79" fill="#FFFFFF" d="M142.42,65.32c0.59-0.13,0.96-0.71,0.82-1.3c-0.13-0.58-0.71-0.95-1.3-0.82
					c-0.59,0.13-0.95,0.71-0.82,1.3C141.26,65.09,141.84,65.46,142.42,65.32z"/>
				<path opacity="0.8" fill="#FFFFFF" d="M144.49,63.57c0.24,0.49,0.81,0.69,1.3,0.46c0.48-0.23,0.68-0.82,0.46-1.31
					c-0.24-0.48-0.82-0.69-1.31-0.46C144.46,62.5,144.25,63.08,144.49,63.57z"/>
				<path opacity="0.8" fill="#FFFFFF" d="M147.23,62.11c0.33,0.43,0.95,0.51,1.37,0.18c0.43-0.32,0.52-0.94,0.19-1.37
					c-0.34-0.43-0.95-0.51-1.38-0.19C146.99,61.07,146.91,61.68,147.23,62.11z"/>
				<path opacity="0.71" fill="#FFFFFF" d="M149.59,58.99c-0.27,0.32-0.25,0.8,0.06,1.08c0.31,0.28,0.79,0.26,1.08-0.05
					c0.27-0.31,0.25-0.79-0.06-1.07C150.36,58.66,149.88,58.68,149.59,58.99z"/>
				<path opacity="0.71" fill="#FFFFFF" d="M151.16,57.08c-0.19,0.31-0.1,0.71,0.21,0.91c0.31,0.2,0.72,0.11,0.91-0.2
					c0.2-0.31,0.1-0.72-0.2-0.91C151.77,56.69,151.37,56.78,151.16,57.08z"/>
				<path opacity="0.71" fill="#FFFFFF" d="M152.33,55c-0.12,0.27,0.01,0.59,0.28,0.71c0.27,0.12,0.6-0.01,0.71-0.29
					c0.12-0.27-0.02-0.59-0.29-0.71C152.76,54.59,152.44,54.72,152.33,55z"/>
				<path opacity="0.71" fill="#FFFFFF" d="M153.42,53.4c0.24,0.05,0.47-0.09,0.53-0.32c0.06-0.23-0.09-0.47-0.32-0.52
					c-0.23-0.05-0.47,0.09-0.53,0.32C153.05,53.11,153.19,53.35,153.42,53.4z"/>
				<path opacity="0.71" fill="#FFFFFF" d="M153.93,50.28c-0.24-0.02-0.46,0.16-0.48,0.39c-0.02,0.24,0.15,0.45,0.39,0.48
					c0.24,0.02,0.46-0.15,0.48-0.39C154.34,50.51,154.16,50.3,153.93,50.28z"/>
				<path opacity="0.71" fill="#FFFFFF" d="M151.48,52.39c0.11-0.47-0.18-0.93-0.65-1.04c-0.47-0.11-0.94,0.19-1.05,0.66
					c-0.1,0.47,0.19,0.93,0.66,1.04C150.9,53.15,151.37,52.86,151.48,52.39z"/>
				<path opacity="0.71" fill="#FFFFFF" d="M150.44,55.08c0.19-0.39,0.03-0.86-0.36-1.04c-0.39-0.19-0.86-0.02-1.05,0.37
					s-0.02,0.85,0.37,1.04C149.79,55.63,150.26,55.47,150.44,55.08z"/>
				<path opacity="0.71" fill="#FFFFFF" d="M147.82,56.38c-0.27,0.34-0.2,0.83,0.14,1.1c0.34,0.26,0.84,0.2,1.11-0.14
					c0.25-0.35,0.19-0.84-0.15-1.1C148.57,55.97,148.08,56.03,147.82,56.38z"/>
				<path opacity="0.8" fill="#FFFFFF" d="M146.41,58.13c-0.25,0.22-0.27,0.61-0.04,0.86c0.23,0.25,0.6,0.27,0.86,0.04
					c0.24-0.22,0.27-0.61,0.04-0.86C147.04,57.93,146.67,57.9,146.41,58.13z"/>
				<path opacity="0.8" fill="#FFFFFF" d="M145.45,60.27c0.25-0.16,0.32-0.48,0.17-0.73c-0.16-0.24-0.48-0.32-0.73-0.16
					c-0.24,0.16-0.32,0.48-0.16,0.73C144.88,60.36,145.2,60.43,145.45,60.27z"/>
				<path opacity="0.8" fill="#FFFFFF" d="M143.55,61.11c0.23-0.09,0.32-0.34,0.23-0.56c-0.09-0.23-0.35-0.33-0.57-0.24
					c-0.22,0.1-0.32,0.35-0.23,0.57C143.08,61.1,143.33,61.21,143.55,61.11z"/>
				<path opacity="0.8" fill="#FFFFFF" d="M141.94,61.19c-0.04-0.19-0.23-0.31-0.42-0.26c-0.18,0.04-0.3,0.24-0.26,0.43
					c0.05,0.18,0.23,0.3,0.43,0.26C141.87,61.56,141.99,61.37,141.94,61.19z"/>
				<path fill="#FFFFFF" d="M137.52,61.52c0.02-0.19,0.2-0.33,0.38-0.31c0.19,0.02,0.33,0.19,0.31,0.38
					c-0.02,0.19-0.19,0.33-0.38,0.31C137.65,61.88,137.51,61.71,137.52,61.52z"/>
				<path fill="#FFFFFF" d="M139.75,61.21c0.19-0.02,0.36,0.13,0.39,0.31c0.02,0.19-0.12,0.36-0.32,0.38
					c-0.18,0.02-0.36-0.12-0.37-0.31C139.42,61.4,139.56,61.22,139.75,61.21z"/>
			</g>
			<path fill="#FFFFFF" d="M148.53,49.56c0,5.37-4.36,9.73-9.73,9.73c-5.37,0-9.73-4.36-9.73-9.73c0-5.37,4.36-9.73,9.73-9.73
				C144.17,39.83,148.53,44.18,148.53,49.56z M138.8,43.94c-3.1,0-5.61,2.51-5.61,5.61s2.51,5.61,5.61,5.61
				c3.1,0,5.61-2.51,5.61-5.61S141.9,43.94,138.8,43.94z"/>
		</g>
	</g>
</g>
</svg>
