<svg version="1.1" id="Layer_1" xmlns="http://www.w3.org/2000/svg" xmlns:xlink="http://www.w3.org/1999/xlink" x="0px" y="0px" width="250px" height="62px" viewBox="-400 250 250 62" enable-background="new -400 250 250 62" xml:space="preserve">
<script type="text/ecmascript" xlink:href="rules_read_IE_files/smil.htm"/>
<filter width="150%" height="150%" y="-30%" x="-30%" id="outer_glow_white" filterUnits="objectBoundingBox">
	<feGaussianBlur stdDeviation="4" result="glow"/>
	<feMerge>
		<feMergeNode in="glow"/>
		<feMergeNode in="SourceGraphic"/>
	</feMerge>
</filter>
<g filter="url(#outer_glow_white)">
	<g>
		<defs>
            <path id="slogan" transform="translate(585, -962.3)" d="M-967.3,1231v8.9c5.3-1.2,14.2-0.7,16.3,5.3c1,2.8,0.5,6.3-1.5,8.5c-2.1,2.3-5.5,2.9-8.4,2.9h-9.2v-26.5
	c0-1.1,0.8-1.6,1.8-1.6h14.8c1.4,0,1.7,1.5,1,2.5H-967.3z M-962.3,1242c-1.7,0-3.4,0.1-5,0.5v11.7h6.4c4.2,0,7.8-2.3,7.2-6.9
	C-954.1,1243.1-958.8,1242-962.3,1242z M-920.5,1242.5c0,6.1-3.4,11.8-9.2,14c-5.7,2.1-12.4,0.3-16.1-4.4
	c-3.7-4.8-4.1-11.8-1.3-17.1c3-5.5,9.2-8.1,15.3-6.9C-924.9,1229.4-920.5,1235.7-920.5,1242.5z M-923.6,1242.5
	c0-4.8-2.4-9.7-7.1-11.5c-4.5-1.8-9.9-0.3-12.8,3.6c-2.9,4-3.2,9.9-0.9,14.3c2.2,4.3,7,6.6,11.8,5.7
	C-926.8,1253.6-923.6,1248.1-923.6,1242.5z M-897.1,1228.5c0.6,0,1,0.1,1.4,0.4v27.8h-2.8v-25.7h-2.7c-2.2,0-4.4,0.3-6.1,1.8
	c-1.7,1.4-2.5,3.5-3,5.6c-1.3,4.8-2.5,9.7-4,14.5c-0.7,2.3-2.6,3.8-5,4.2v-2.6c1.3-0.4,2-1.4,2.5-2.7c1.4-4.6,2.6-9.2,3.7-13.9
	c0.6-2.6,1.7-5.2,3.8-7c2.3-1.9,5.2-2.4,8.1-2.4H-897.1z M-894.5,1256.6c3.1-8.8,6.6-17.4,10.4-25.9c0.5-1,1-2.3,2.2-2.8
	c1.2-0.5,2.4,0,3.2,0.9c2.4,4.4,4.2,9.3,6.1,14c1.8,4.6,3.8,9.1,5.3,13.8h-3.2c-1.2-2.8-2-5.8-3.2-8.6h-14.9
	c-1.1,2.9-2.2,5.7-3.2,8.6H-894.5z M-881,1230.2c-2.4,5-4.5,10.2-6.6,15.3h13C-876.5,1240.4-878.4,1235.1-881,1230.2
	C-881.5,1231.2-880.7,1230.9-881,1230.2z M-865.5,1230c0-1.5,1.7-1.8,2.8-1.1v25.3h13.4V1230c0-1.5,1.7-1.8,2.8-1.1v25.3h13.4V1230
	c0-1.6,1.7-1.8,2.8-1.1v27.8h-35.3V1230z M-828.4,1256.6c3.1-8.8,6.6-17.4,10.4-25.9c0.5-1,1-2.3,2.2-2.8c1.2-0.5,2.4,0,3.2,0.9
	c2.4,4.4,4.2,9.3,6.1,14c1.8,4.6,3.8,9.1,5.3,13.8h-3.2c-1.2-2.8-2-5.8-3.2-8.6h-14.9c-1.1,2.9-2.2,5.7-3.2,8.6H-828.4z
	 M-814.9,1230.2c-2.4,5-4.5,10.2-6.6,15.3h13C-810.3,1240.4-812.3,1235.1-814.9,1230.2C-815.4,1231.2-814.6,1230.9-814.9,1230.2z
	 M-799.4,1256.6V1230c0-1.5,1.7-1.8,2.8-1.1v12.8h2.4c3.8,0,5.5-4.3,7.2-7.1c1.2-2,6.7-9.6,8.3-4.2c-2.8,0.5-4.6,3-5.9,5.3
	c-1.4,2.5-2.9,5.4-5.4,7.1c2.1,1.4,3.8,3.5,5.3,5.6c1.4,2,3.4,5.4,6.1,5.8h0.7v9.9h-2.8v-7.8c-2.8-1.3-4.6-3.8-6.3-6.4
	c-1.7-2.5-3.9-5.7-7.3-5.7h-2.4v12.5H-799.4z M-776.9,1231c-1.4,0-1.7-1.5-1-2.5h20.8c1.4,0,1.7,1.5,1,2.5h-9.8v25.6h-2.9V1231
	H-776.9z M-751,1239c5.6-1.2,15-0.9,17.2,5.6c1,2.8,0.6,6.3-1.4,8.6c-2.2,2.6-5.9,3.4-9.2,3.4h-9.5V1230c0-1.5,1.7-1.8,2.8-1.1V1239
	z M-745.7,1240.9c-2,0-3.8,0.2-5.3,0.5v12.7h6.8c4.4,0,8.1-2.2,7.8-7C-736.7,1242.4-741.6,1240.9-745.7,1240.9z M-727.5,1256.6V1230
	c0-1.5,1.7-1.8,2.8-1.1v27.8H-727.5z M-699.2,1256.6v-12.5h-2.1c-3.4,0-5.4,3.7-7,6.2c-1.9,2.8-4,5.5-7.3,6.6v-2.7
	c2.4-1,4-3.7,5.3-5.8c1.4-2,2.9-4.1,4.8-5.6c-2.2-1.8-3.6-4.6-4.9-7.1c-1.2-2.2-2.9-4.8-5.5-5.3c1.6-5.5,7.2,2.5,8.2,4.6
	c1.3,2.5,3,6.7,6.4,6.7h2.1V1230c0-1.6,1.8-1.8,2.9-1.1v12.8h2.1c3.4,0,5.1-4.2,6.4-6.7c1.1-2,6.6-10,8.2-4.6
	c-2.7,0.5-4.4,3.1-5.5,5.3c-1.3,2.5-2.7,5.3-4.9,7.1c1.9,1.5,3.4,3.6,4.8,5.6c1.4,2.1,2.9,4.8,5.3,5.8v2.7c-3.4-1.1-5.5-3.8-7.3-6.6
	c-1.6-2.5-3.6-6.2-7-6.2h-2.1v12.5H-699.2z M-656.4,1229.1c-3.3,5.7-6.9,11.5-11,16.7v10.8h-2.9v-10.9c-2.7-3.3-5.1-6.8-7.5-10.2
	c-1-1.4-2.1-2.9-3-4.4c-1-1.7,0-3.3,2-2.3c3.3,4.8,6.3,9.9,10.1,14.5c1.8-2.4,3.4-5,5-7.5c1.3-2.1,2.4-4.4,3.9-6.3
	C-658.9,1228.5-657.4,1228-656.4,1229.1C-656.7,1229.6-656.4,1229-656.4,1229.1z M-650.8,1243.3c-1.2,0-1.9-1.5-0.9-2.5h5.1
	c2.3,0,5.1-0.7,6.5-2.7c1.5-2.1,1-5-1.1-6.5c-3.4-2.3-11.4-2.2-13.1,2.3c-1.8-0.2-1.9-2-0.9-3.2c3.4-3.9,11.1-3.8,15.3-1.4
	c2.3,1.3,3.8,3.7,3.5,6.4c-0.4,2.9-2.7,5.1-5.3,6.2c2.9,0.8,5.2,2.7,5.8,5.7c0.5,3.1-0.9,6-3.5,7.7c-4.9,3-12.5,2.3-17.2-0.7l1-2.2
	c4,2.5,11.1,3.8,15,0.5c2-1.7,2.5-4.7,1-6.9c-1.5-2.2-4.7-2.7-7.2-2.7H-650.8z M-617,1240.8c1.4,0,1.7,1.5,1,2.5h-13.7v10.8h14.4
	v2.5h-17.3v-26.5c0-1,0.8-1.6,1.8-1.6h14.4c1.4,0,1.6,1.5,1,2.5h-14.3v9.8H-617z M-608.6,1256.6h-2.8v-26.5c0-1.1,0.8-1.6,1.8-1.6
	h15.1c1.4,0,1.7,1.5,1,2.5h-15.1V1256.6z M-575.9,1240.8c1.4,0,1.7,1.5,1,2.5h-13.7v10.8h14.4v2.5h-17.3v-26.5c0-1,0.8-1.6,1.8-1.6
	h14.4c1.4,0,1.6,1.5,1,2.5h-14.3v9.8H-575.9z M-566.4,1256.6c3.1-8.8,6.6-17.4,10.4-25.9c0.5-1,1-2.3,2.2-2.8c1.2-0.5,2.4,0,3.2,0.9
	c2.4,4.4,4.2,9.3,6.1,14c1.8,4.6,3.8,9.1,5.3,13.8h-3.2c-1.2-2.8-2-5.8-3.2-8.6h-14.9c-1.1,2.9-2.2,5.7-3.2,8.6H-566.4z
	 M-552.9,1230.2c-2.4,5-4.5,10.2-6.6,15.3h13C-548.3,1240.4-550.3,1235.1-552.9,1230.2C-553.4,1231.2-552.6,1230.9-552.9,1230.2z
	 M-517.5,1229.8c1.3,1,1.3,2.6-0.2,3.4c-2.8-3.4-8.8-3.7-12.6-2c-4.3,2.1-6.3,6.7-6.3,11.3c0,4.6,2,9,6.2,11c4,1.9,9.2,1.4,12.9-0.9
	l1.2,2.2c-6.9,4.6-17.7,2.6-21.7-4.9c-3.9-7.3-1.3-17.7,6.6-21.1C-527.4,1227.2-521.2,1227.1-517.5,1229.8
	C-517.1,1230.1-517.8,1229.7-517.5,1229.8z M-511,1239c5.6-1.2,15-0.9,17.2,5.6c1,2.8,0.6,6.3-1.4,8.6c-2.2,2.6-5.9,3.4-9.2,3.4
	h-9.5V1230c0-1.5,1.7-1.8,2.8-1.1V1239z M-505.7,1240.9c-2,0-3.8,0.2-5.3,0.5v12.7h6.8c4.4,0,8.1-2.2,7.8-7
	C-496.7,1242.4-501.6,1240.9-505.7,1240.9z M-487.5,1256.6V1230c0-1.5,1.7-1.8,2.8-1.1v27.8H-487.5z M-461.3,1236.8
	c0,3.8-2.3,6.9-5.8,8.2c-3.1,1.2-6.7,0.9-10,0.3v11.3h-2.8v-26.5c0-1.1,0.8-1.6,1.8-1.6h7c1.2,0,2.4,0,3.5,0.3
	C-463.5,1229.6-461.3,1232.9-461.3,1236.8z M-464.3,1236.9c0-2.8-1.4-5.2-4.3-5.7c-0.9-0.2-2-0.2-3.2-0.2h-5.2v12
	C-472,1244.2-464.3,1243.6-464.3,1236.9z M-459.5,1256.6c2.6-3.2,5.1-6.6,7.5-10c-3.1-4.8-6.3-9.8-8.9-14.9c-0.4-0.8-1-1.7-0.5-2.6
	c0.4-0.8,1.4-0.8,2.1-0.6c1.1,2.6,2.7,5,4.1,7.4c1.6,2.7,3.2,5.5,4.9,8.1c3.2-4.7,6.1-9.5,8.7-14.5c0.5-1.2,2.7-1.8,3.4-0.4
	c-5.3,9.6-11.1,18.8-18,27.3H-459.5z"/>
		</defs>
        <defs>
            <mask id="visible">
                <use xlink:href="#slogan" fill="#ffffff"/>   
            </mask>
            <mask id="invisible">
                <rect x="-390" y="258" width="300px" height="45px" fill="#ffffff" stroke="none"/>
                <use xlink:href="#slogan" fill="#000000"/>  
            </mask>
        </defs>
		<clipPath id="SVGID_2_">
			<use xlink:href="#SVGID_1_" overflow="visible"/>
		</clipPath>
	</g>
	<g>
		<defs>
			<rect id="SVGID_3_" x="-400" y="257" width="180" height="48"/>
		</defs>
        <rect x="-250" y="250" width="57px" height="65px" fill="#ffffff" stroke="none" style="mask: url(#visible)"/>
        <rect x="-400" y="250" width="150px" height="65px" fill="#ffffff" stroke="none" style="mask: url(#invisible)"/>
	</g>
</g></svg>