<?xml version="1.0" encoding="utf-8"?>
<!-- Generator: Adobe Illustrator 18.1.1, SVG Export Plug-In . SVG Version: 6.00 Build 0)  -->
<svg version="1.1" id="Layer_1" xmlns="http://www.w3.org/2000/svg" xmlns:xlink="http://www.w3.org/1999/xlink" x="0px" y="0px"
	 width="28px" height="28px" viewBox="0 0 28 28" enable-background="new 0 0 28 28" xml:space="preserve">
<rect opacity="0.6" fill-rule="evenodd" clip-rule="evenodd" fill="#11235B" width="28" height="28"/>
<circle fill="#FFFFFF" cx="8.21" cy="8.42" r="1.21"/>
<circle fill="#FFFFFF" cx="11.21" cy="5.42" r="1.21"/>
<circle fill="#FFFFFF" cx="14.21" cy="5.42" r="1.21"/>
<circle fill="#FFFFFF" cx="17.21" cy="5.42" r="1.21"/>
<circle fill="#FFFFFF" cx="20.21" cy="8.42" r="1.21"/>
<circle fill="#FFFFFF" cx="20.21" cy="11.42" r="1.21"/>
<circle fill="#FFFFFF" cx="17.21" cy="14.42" r="1.21"/>
<circle fill="#FFFFFF" cx="14.21" cy="17.42" r="1.21"/>
<circle fill="#FFFFFF" cx="14.21" cy="22.42" r="1.21"/>
</svg>
